<?xml version="1.0" encoding="UTF-8"?>
<svg width="40px" height="31px" viewBox="0 0 40 31" version="1.1" xmlns="http://www.w3.org/2000/svg" xmlns:xlink="http://www.w3.org/1999/xlink">
    <!-- Generator: Sketch 54.1 (76490) - https://sketchapp.com -->
    <title>Master CARD</title>
    <desc>Created with Sketch.</desc>
    <defs>
        <polygon id="path-1" points="0.0686417063 0.113320174 0.668359269 0.113320174 0.668359269 0.729122208 0.0686417063 0.729122208"></polygon>
        <polygon id="path-3" points="0 0.0666417698 17.4397011 0.0666417698 17.4397011 22.8048574 0 22.8048574"></polygon>
        <polygon id="path-5" points="0.0446198702 0.0666417698 17.4844729 0.0666417698 17.4844729 22.8048865 0.0446198702 22.8048865"></polygon>
    </defs>
    <g id="Page-1" stroke="none" stroke-width="1" fill="none" fill-rule="evenodd">
        <g id="Artboard" transform="translate(-472.000000, -386.000000)">
            <g id="Group-5" transform="translate(28.000000, 38.000000)">
                <g id="Group">
                    <g id="Group-24" transform="translate(131.000000, 107.000000)">
                        <g id="Group-46" transform="translate(0.000000, 6.000000)">
                            <g id="Group-17" transform="translate(313.000000, 235.000000)">
                                <g id="Master-CARD">
                                    <rect id="Rectangle" fill="#FFFFFF" x="0" y="0" width="40" height="31"></rect>
                                    <g id="Group-7" transform="translate(2.000000, 1.000000)">
                                        <path d="M5.98283155,25.7935293 C5.88274057,25.6875149 5.76401196,25.6051241 5.62650765,25.5463569 C5.48900335,25.4875896 5.33852173,25.4581331 5.17492475,25.4581331 C5.0883633,25.4581331 4.9984885,25.4661534 4.90516229,25.4817567 C4.81197413,25.4976515 4.72058071,25.5253582 4.63112008,25.5653141 C4.54165945,25.6051241 4.45661662,25.6602458 4.3757155,25.7305331 C4.29495243,25.8009664 4.22481971,25.8896276 4.16517929,25.9966628 C4.06895389,25.828673 3.93862853,25.6969935 3.7742032,25.6014785 C3.60977787,25.5059635 3.42174488,25.4581331 3.21010422,25.4581331 C3.13900511,25.4581331 3.06542098,25.4649868 2.98935183,25.4786943 C2.91342074,25.4924018 2.83790382,25.5160254 2.76293912,25.549565 C2.68783637,25.5832505 2.61618503,25.6287477 2.54798511,25.6864942 C2.47964713,25.7442406 2.41765974,25.8171529 2.36188491,25.9053767 L2.36188491,25.5368783 L1.76175317,25.5368783 L1.76175317,28.5536943 L2.36754522,28.5536943 L2.36754522,26.8815255 C2.36754522,26.7534916 2.38687314,26.6396027 2.42539091,26.5398588 C2.46377063,26.4402607 2.51526571,26.3567033 2.57973811,26.2894782 C2.64407245,26.2222532 2.71958937,26.1715063 2.80615082,26.1368 C2.89271226,26.1020938 2.98507208,26.0848865 3.08323027,26.0848865 C3.28700171,26.0848865 3.44535255,26.1531324 3.55786862,26.2894782 C3.67038469,26.4259699 3.7265737,26.6212288 3.7265737,26.875255 L3.7265737,28.5536943 L4.3325038,28.5536943 L4.3325038,26.8815255 C4.3325038,26.7534916 4.35169366,26.6396027 4.39021143,26.5398588 C4.42872921,26.4402607 4.48008623,26.3567033 4.54455863,26.2894782 C4.60903103,26.2222532 4.68454795,26.1715063 4.7711094,26.1368 C4.85767084,26.1020938 4.95003066,26.0848865 5.0480508,26.0848865 C5.25196029,26.0848865 5.41017307,26.1531324 5.52268914,26.2894782 C5.63520521,26.4259699 5.69139422,26.6212288 5.69139422,26.875255 L5.69139422,28.5536943 L6.29732433,28.5536943 L6.29732433,26.6579766 C6.29732433,26.4816748 6.26998914,26.3199555 6.21518069,26.1731103 C6.16037225,26.0261193 6.08292254,25.8996895 5.98283155,25.7935293" id="Fill-1" fill="#1D1D1B"></path>
                                        <path d="M9.15427995,27.4293587 C9.11258688,27.5470391 9.05391285,27.6488245 8.97839593,27.7348609 C8.90287901,27.8210432 8.81245198,27.8885599 8.70711485,27.9379944 C8.60177772,27.987283 8.48442967,28.0119274 8.35534681,28.0119274 C8.22018947,28.0119274 8.09939001,27.9862623 7.99308648,27.9349321 C7.88678295,27.883456 7.7967701,27.8141894 7.72332402,27.7269864 C7.64987795,27.6399292 7.59313672,27.5375605 7.55337644,27.420026 C7.51361616,27.3024915 7.49373602,27.1775199 7.49373602,27.0452571 C7.49373602,26.9129944 7.51361616,26.7881687 7.55337644,26.6704883 C7.59313672,26.5529538 7.64987795,26.4505851 7.72332402,26.3635279 C7.7967701,26.2764707 7.88678295,26.2070583 7.99308648,26.1557281 C8.09939001,26.104252 8.22018947,26.0784411 8.35534681,26.0784411 C8.48442967,26.0784411 8.60177772,26.1032313 8.70711485,26.1525199 C8.81245198,26.2019544 8.90287901,26.2696169 8.97839593,26.3556534 C9.05391285,26.4418356 9.11258688,26.5436211 9.15427995,26.6610097 C9.19611108,26.7786901 9.21695761,26.9067239 9.21695761,27.0452571 C9.21695761,27.1837904 9.19611108,27.3118242 9.15427995,27.4293587 L9.15427995,27.4293587 Z M9.17816373,25.9021394 C9.07876303,25.767835 8.9556166,25.6602166 8.80844834,25.5794299 C8.66141814,25.4986431 8.48553412,25.4581039 8.28079629,25.4581039 C8.0800621,25.4581039 7.89327161,25.4976224 7.72042484,25.5763675 C7.54744001,25.6549669 7.39640616,25.7647727 7.26718525,25.9053475 C7.1381024,26.0460681 7.03663085,26.2134745 6.96304672,26.4075669 C6.88960064,26.601805 6.85287761,26.8142712 6.85287761,27.0452571 C6.85287761,27.2762431 6.88960064,27.4887093 6.96304672,27.6828016 C7.03663085,27.8770398 7.1381024,28.044592 7.26718525,28.1851668 C7.39640616,28.3257416 7.54744001,28.4354016 7.72042484,28.5141467 C7.89327161,28.5928919 8.0800621,28.6322645 8.28079629,28.6322645 C8.48553412,28.6322645 8.66141814,28.5924545 8.80844834,28.5126885 C8.9556166,28.4329225 9.07876303,28.3257416 9.17816373,28.1915831 L9.17816373,28.5536652 L9.80121285,28.5536652 L9.80121285,25.5368491 L9.17816373,25.5368491 L9.17816373,25.9021394 Z" id="Fill-3" fill="#1D1D1B"></path>
                                        <path d="M12.6652922,27.0405908 C12.4903746,26.8968079 12.2468428,26.8007096 11.9348351,26.7522958 L11.6398083,26.7051946 C11.5740934,26.6946952 11.5125202,26.6827376 11.4548125,26.6688843 C11.397243,26.6553226 11.3475426,26.6369487 11.3058495,26.6137626 C11.2641565,26.5907224 11.2307468,26.5614117 11.2060347,26.5256847 C11.1811845,26.4901035 11.1687594,26.4459187 11.1687594,26.3935677 C11.1687594,26.2863868 11.2158367,26.199767 11.3104054,26.1335627 C11.404698,26.0675043 11.5373703,26.0345479 11.7082843,26.0345479 C11.797745,26.0345479 11.885687,26.0428599 11.9721103,26.0596297 C12.0585337,26.0765454 12.1405393,26.0973983 12.2181271,26.1226259 C12.2955768,26.1478535 12.3661237,26.1755602 12.4297677,26.2060375 C12.4932737,26.2365148 12.5471158,26.2655339 12.5907417,26.2926572 L12.8589855,25.779501 C12.7100225,25.6785905 12.5360713,25.6004286 12.3374079,25.5447236 C12.1386065,25.4891645 11.9269659,25.4613121 11.7023479,25.4613121 C11.519423,25.4613121 11.3555499,25.4839149 11.2104525,25.5291204 C11.0653551,25.5741802 10.9416564,25.6381971 10.8392185,25.7211712 C10.7369186,25.8041453 10.6583644,25.9053475 10.603694,26.0249235 C10.5490236,26.1446454 10.5218265,26.2789497 10.5218265,26.4281281 C10.5218265,26.6716549 10.603694,26.8683721 10.7677052,27.0185713 C10.9317163,27.1686246 11.172625,27.2667645 11.4907072,27.3129908 L11.7887713,27.3538217 C11.9596853,27.3790493 12.0849025,27.4195885 12.1644231,27.4750018 C12.2439437,27.5307067 12.2837039,27.6015774 12.2837039,27.6876138 C12.2837039,27.8010652 12.2290336,27.8907473 12.1196928,27.9568057 C12.010352,28.0228642 11.8484117,28.0561122 11.6337338,28.0561122 C11.5165238,28.0561122 11.4117389,28.0476544 11.319241,28.0308845 C11.2268812,28.0141147 11.1423906,27.991512 11.0659073,27.963222 C10.9892859,27.9349321 10.9208099,27.9022674 10.8602031,27.8655196 C10.7994582,27.8287719 10.7434072,27.7895451 10.6917741,27.7475477 L10.4025457,28.2417467 C10.505812,28.3237 10.6141863,28.3899043 10.7275307,28.4403596 C10.8407371,28.4905232 10.9520107,28.5298958 11.0613514,28.5583316 C11.1706922,28.5867673 11.2739585,28.6054328 11.3714264,28.6150573 C11.4687562,28.62439 11.5542132,28.6292022 11.6277974,28.6292022 C11.8325352,28.6292022 12.0158743,28.6051412 12.1778146,28.5567275 C12.3398929,28.5084596 12.4758786,28.4407971 12.5863238,28.353594 C12.696631,28.2665368 12.7809836,28.162564 12.8396576,28.0418214 C12.8981935,27.9212246 12.9275996,27.7883785 12.9275996,27.6435748 C12.9275996,27.3853197 12.8402098,27.1842278 12.6652922,27.0405908" id="Fill-5" fill="#1D1D1B"></path>
                                        <path d="M16.756556,26.7871041 C16.7724325,26.6778816 16.8003199,26.5775544 16.8400802,26.4862683 C16.8798405,26.395128 16.9310595,26.316237 16.9935991,26.2501785 C17.0562767,26.1839742 17.1306892,26.1332273 17.2171126,26.0975004 C17.303674,26.0617734 17.4025225,26.043837 17.5137961,26.043837 C17.7124594,26.043837 17.8745378,26.1090205 17.9997551,26.2390959 C18.1249723,26.3693171 18.2043548,26.5520351 18.2381787,26.7871041 L16.756556,26.7871041 Z M18.4991055,25.8974292 C18.3807911,25.7578752 18.2387309,25.6498193 18.072787,25.5731157 C17.906843,25.496412 17.7244703,25.458206 17.525807,25.458206 C17.3149947,25.458206 17.12282,25.496412 16.9490068,25.5731157 C16.7749175,25.6498193 16.6254023,25.7578752 16.500185,25.8974292 C16.3749678,26.0369832 16.2776379,26.2045355 16.2080574,26.3997944 C16.1384769,26.5950534 16.1036867,26.8101444 16.1036867,27.0453592 C16.1036867,27.2845113 16.1394433,27.5017897 16.2110947,27.6970487 C16.2826079,27.8923076 16.382837,28.0592766 16.5120579,28.1978098 C16.6414169,28.336343 16.7953499,28.4433781 16.9742712,28.5189152 C17.1531924,28.5945981 17.349923,28.6322208 17.5646009,28.6322208 C17.7810735,28.6322208 17.98733,28.6008685 18.1830941,28.5378724 C18.3787202,28.4748762 18.5642682,28.3646329 18.7390478,28.2071426 L18.4291109,27.7380253 C18.30983,27.83879 18.1781241,27.9170977 18.0339931,27.9726569 C17.8898621,28.0283618 17.7462833,28.0560684 17.6032567,28.0560684 C17.5017852,28.0560684 17.4044553,28.041486 17.3111291,28.0118836 C17.2176648,27.9825729 17.1333123,27.9370757 17.0576573,27.8749545 C16.9821404,27.8131249 16.917668,27.7337964 16.8638259,27.6372606 C16.81026,27.5407249 16.7733989,27.4242111 16.7536568,27.2877194 L18.864265,27.2877194 C18.8682687,27.2499509 18.8711679,27.209995 18.8732387,27.1679976 C18.8751715,27.1260001 18.876276,27.0841485 18.876276,27.0421511 C18.876276,26.8070821 18.8428663,26.5922827 18.776323,26.3981904 C18.7096417,26.2039522 18.61742,26.0369832 18.4991055,25.8974292 L18.4991055,25.8974292 Z" id="Fill-7" fill="#1D1D1B"></path>
                                        <path d="M26.7532569,27.4293587 C26.7114258,27.5470391 26.6527517,27.6488245 26.5773729,27.7348609 C26.5017179,27.8210432 26.4112909,27.8885599 26.3059537,27.9379944 C26.2006166,27.987283 26.0834066,28.0119274 25.9541857,28.0119274 C25.8190284,28.0119274 25.6982289,27.9862623 25.5920634,27.9349321 C25.4856218,27.883456 25.395747,27.8141894 25.3221629,27.7269864 C25.2487168,27.6399292 25.1919756,27.5375605 25.1522153,27.420026 C25.112455,27.3024915 25.092713,27.1775199 25.092713,27.0452571 C25.092713,26.9129944 25.112455,26.7881687 25.1522153,26.6704883 C25.1919756,26.5529538 25.2487168,26.4505851 25.3221629,26.3635279 C25.395747,26.2764707 25.4856218,26.2070583 25.5920634,26.1557281 C25.6982289,26.104252 25.8190284,26.0784411 25.9541857,26.0784411 C26.0834066,26.0784411 26.2006166,26.1032313 26.3059537,26.1525199 C26.4112909,26.2019544 26.5017179,26.2696169 26.5773729,26.3556534 C26.6527517,26.4418356 26.7114258,26.5436211 26.7532569,26.6610097 C26.79495,26.7786901 26.8157965,26.9067239 26.8157965,27.0452571 C26.8157965,27.1837904 26.79495,27.3118242 26.7532569,27.4293587 L26.7532569,27.4293587 Z M26.7770026,25.9021394 C26.6776019,25.767835 26.5544555,25.6602166 26.4072872,25.5794299 C26.2603951,25.4986431 26.084373,25.4581039 25.8797732,25.4581039 C25.678901,25.4581039 25.4921105,25.4976224 25.3192637,25.5763675 C25.1462789,25.6549669 24.9953831,25.7647727 24.8660241,25.9053475 C24.7369413,26.0460681 24.6354697,26.2134745 24.5620237,26.4075669 C24.4884395,26.601805 24.4517165,26.8142712 24.4517165,27.0452571 C24.4517165,27.2762431 24.4884395,27.4887093 24.5620237,27.6828016 C24.6354697,27.8770398 24.7369413,28.044592 24.8660241,28.1851668 C24.9953831,28.3257416 25.1462789,28.4354016 25.3192637,28.5141467 C25.4921105,28.5928919 25.678901,28.6322645 25.8797732,28.6322645 C26.084373,28.6322645 26.2603951,28.5924545 26.4072872,28.5126885 C26.5544555,28.4329225 26.6776019,28.3257416 26.7770026,28.1915831 L26.7770026,28.5536652 L27.4001898,28.5536652 L27.4001898,25.5368491 L26.7770026,25.5368491 L26.7770026,25.9021394 Z" id="Fill-9" fill="#1D1D1B"></path>
                                        <path d="M15.3369621,27.9521248 C15.236595,27.9919348 15.1377466,28.0119128 15.0402787,28.0119128 C14.9766346,28.0119128 14.9175464,28.0015593 14.862876,27.9804147 C14.8082056,27.9595618 14.7605761,27.9264597 14.7198495,27.8813999 C14.6791228,27.8361943 14.6466795,27.7780104 14.6229338,27.7065564 C14.59905,27.6351024 14.5871771,27.549066 14.5871771,27.4483013 L14.5871771,26.1351522 L15.5878108,26.1351522 L15.5878108,25.5369804 L14.5871771,25.5369804 L14.5871771,24.6238277 L13.9610908,24.6238277 L13.9610908,25.5369804 L13.3917456,25.5369804 L13.3917456,26.1351522 L13.9610908,26.1351522 L13.9610908,27.460988 C13.9610908,27.8618594 14.0509656,28.1572998 14.2308532,28.347309 C14.4107409,28.5374641 14.662694,28.63225 14.9865747,28.63225 C15.1674287,28.63225 15.3299213,28.6029393 15.4740523,28.544172 C15.5693113,28.5053827 15.6576675,28.4609062 15.7403633,28.4119092 L15.5273421,27.8608387 C15.4670114,27.8948158 15.4037815,27.9254389 15.3369621,27.9521248" id="Fill-11" fill="#1D1D1B"></path>
                                        <path d="M20.9621583,25.4581623 C20.7872406,25.4581623 20.629304,25.4917019 20.4880721,25.5589269 C20.3469784,25.626152 20.228802,25.7878713 20.1334049,25.9328208 L20.1334049,25.5369075 L19.5676493,25.5369075 L19.5676493,28.5537235 L20.1393413,28.5537235 L20.1393413,26.8940955 C20.1393413,26.7662075 20.1563223,26.6517353 20.1900081,26.5508248 C20.2238319,26.4502059 20.270495,26.3651903 20.3302735,26.2957778 C20.3897759,26.2266571 20.4612892,26.1740144 20.5449514,26.1384333 C20.6283376,26.1027063 20.7195929,26.0849157 20.8191317,26.0849157 C20.8946486,26.0849157 20.976102,26.0942485 21.0634917,26.1132056 C21.1082221,26.1228301 21.1497771,26.1347877 21.1888471,26.148641 L21.3730145,25.518971 C21.323038,25.5023471 21.2723713,25.4880563 21.2200478,25.4787235 C21.1434265,25.465016 21.0575553,25.4581623 20.9621583,25.4581623" id="Fill-13" fill="#1D1D1B"></path>
                                        <path d="M29.6235902,25.4581623 C29.4486726,25.4581623 29.2907359,25.4917019 29.1495041,25.5589269 C29.0084103,25.626152 28.8902339,25.7878713 28.7948369,25.9328208 L28.7948369,25.5369075 L28.2290812,25.5369075 L28.2290812,28.5537235 L28.8007733,28.5537235 L28.8007733,26.8940955 C28.8007733,26.7662075 28.8176162,26.6517353 28.85144,26.5508248 C28.8851258,26.4502059 28.931927,26.3651903 28.9915674,26.2957778 C29.0512078,26.2266571 29.1227211,26.1740144 29.2062453,26.1384333 C29.2896315,26.1027063 29.3810249,26.0849157 29.4804256,26.0849157 C29.5560806,26.0849157 29.6375339,26.0942485 29.7249237,26.1132056 C29.7695159,26.1228301 29.811071,26.1347877 29.850141,26.148641 L30.0344464,25.518971 C29.9843319,25.5023471 29.9336652,25.4880563 29.8814798,25.4787235 C29.8048584,25.465016 29.7188492,25.4581623 29.6235902,25.4581623" id="Fill-15" fill="#1D1D1B"></path>
                                        <path d="M32.5099657,27.4293587 C32.4681345,27.5470391 32.4094605,27.6488245 32.3340816,27.7348609 C32.2585647,27.8210432 32.1679996,27.8885599 32.0628006,27.9379944 C31.9573254,27.987283 31.8401154,28.0119274 31.7110325,28.0119274 C31.5757371,28.0119274 31.4550757,27.9862623 31.3487722,27.9349321 C31.2423306,27.883456 31.1524558,27.8141894 31.0788717,27.7269864 C31.0054256,27.6399292 30.9486844,27.5375605 30.9090622,27.420026 C30.8691638,27.3024915 30.8494217,27.1775199 30.8494217,27.0452571 C30.8494217,26.9129944 30.8691638,26.7881687 30.9090622,26.6704883 C30.9486844,26.5529538 31.0054256,26.4505851 31.0788717,26.3635279 C31.1524558,26.2764707 31.2423306,26.2070583 31.3487722,26.1557281 C31.4550757,26.104252 31.5757371,26.0784411 31.7110325,26.0784411 C31.8401154,26.0784411 31.9573254,26.1032313 32.0628006,26.1525199 C32.1679996,26.2019544 32.2585647,26.2696169 32.3340816,26.3556534 C32.4094605,26.4418356 32.4681345,26.5436211 32.5099657,26.6610097 C32.5516587,26.7786901 32.5725053,26.9067239 32.5725053,27.0452571 C32.5725053,27.1837904 32.5516587,27.3118242 32.5099657,27.4293587 L32.5099657,27.4293587 Z M32.5337114,24.3107572 L32.5337114,25.9021394 C32.4343107,25.767835 32.3111643,25.6602166 32.1641341,25.5794299 C32.0171039,25.4986431 31.8410818,25.4581039 31.636482,25.4581039 C31.4357478,25.4581039 31.2488193,25.4976224 31.0759725,25.5763675 C30.9029877,25.6549669 30.7520919,25.7647727 30.622871,25.9053475 C30.4936501,26.0460681 30.3921785,26.2134745 30.3187324,26.4075669 C30.2451483,26.601805 30.2084253,26.8142712 30.2084253,27.0452571 C30.2084253,27.2762431 30.2451483,27.4887093 30.3187324,27.6828016 C30.3921785,27.8770398 30.4936501,28.044592 30.622871,28.1851668 C30.7520919,28.3257416 30.9029877,28.4354016 31.0759725,28.5141467 C31.2488193,28.5928919 31.4357478,28.6322645 31.636482,28.6322645 C31.8410818,28.6322645 32.0171039,28.5924545 32.1641341,28.5126885 C32.3111643,28.4329225 32.4343107,28.3257416 32.5337114,28.1915831 L32.5337114,28.5536652 L33.1568986,28.5536652 L33.1568986,24.3107572 L32.5337114,24.3107572 Z" id="Fill-17" fill="#1D1D1B"></path>
                                        <path d="M22.4534173,26.3477788 C22.5327998,26.2627632 22.6272304,26.1967047 22.7365712,26.1494576 C22.845912,26.1020647 22.9640884,26.0784411 23.0913765,26.0784411 C23.2312278,26.0784411 23.361277,26.1020647 23.4815242,26.1494576 C23.5979059,26.1949548 23.6985491,26.2588259 23.7840061,26.3396127 L24.0840029,25.812749 C23.9714869,25.7179631 23.844889,25.6400928 23.7039333,25.5794299 C23.5160384,25.4986431 23.3118528,25.4581039 23.0913765,25.4581039 C22.8706241,25.4581039 22.6664385,25.4986431 22.4786816,25.5794299 C22.2907867,25.6602166 22.1288464,25.7714807 21.9927226,25.9133678 C21.8567369,26.0549634 21.7497431,26.2223698 21.6722934,26.4154414 C21.5947057,26.6086588 21.5559118,26.818646 21.5559118,27.0452571 C21.5559118,27.2720142 21.5947057,27.4818555 21.6722934,27.6750729 C21.7497431,27.8682903 21.8567369,28.0355509 21.9927226,28.1772923 C22.1288464,28.3190336 22.2907867,28.4302977 22.4786816,28.5110844 C22.6664385,28.5918712 22.8706241,28.6322645 23.0913765,28.6322645 C23.3118528,28.6322645 23.5160384,28.5918712 23.7039333,28.5110844 C23.844889,28.4504215 23.9714869,28.372697 24.0840029,28.2777653 L23.7840061,27.7507558 C23.6985491,27.8318342 23.5979059,27.8954136 23.4815242,27.9412025 C23.361277,27.9883038 23.2312278,28.0119274 23.0913765,28.0119274 C22.9640884,28.0119274 22.845912,27.9883038 22.7365712,27.9412025 C22.6272304,27.8939554 22.5327998,27.8277511 22.4534173,27.7425896 C22.3738967,27.6577198 22.311219,27.5559343 22.2655223,27.4373791 C22.2198256,27.318678 22.1970463,27.1880193 22.1970463,27.0452571 C22.1970463,26.902495 22.2198256,26.7718363 22.2655223,26.653281 C22.311219,26.53458 22.3738967,26.4327945 22.4534173,26.3477788" id="Fill-19" fill="#1D1D1B"></path>
                                        <g id="Group-23" transform="translate(34.099963, 27.998293)">
                                            <mask id="mask-2" fill="white">
                                                <use xlink:href="#path-1"></use>
                                            </mask>
                                            <g id="Clip-22"></g>
                                            <path d="M0.376751396,0.384970276 L0.376751396,0.442133457 L0.440907077,0.442133457 C0.454225471,0.442133457 0.464295477,0.439966923 0.471441933,0.435967167 C0.478588388,0.431634098 0.481999197,0.424301211 0.481999197,0.413968508 C0.481999197,0.403969118 0.478588388,0.396636232 0.471441933,0.391969849 C0.464295477,0.387470124 0.454225471,0.384970276 0.440907077,0.384970276 L0.376751396,0.384970276 Z M0.442368852,0.30897491 C0.484110649,0.30897491 0.515782441,0.318640987 0.537384228,0.337639829 C0.558986014,0.35663867 0.569705698,0.381970459 0.569705698,0.413968508 C0.569705698,0.438966984 0.562071984,0.45963239 0.546642136,0.476131384 C0.531049869,0.492630378 0.508635986,0.503463051 0.479075647,0.508629403 L0.573603764,0.620622574 L0.471441933,0.620622574 L0.386821401,0.511795876 L0.376751396,0.511795876 L0.376751396,0.620622574 L0.291481186,0.620622574 L0.291481186,0.30897491 L0.442368852,0.30897491 Z M0.422553679,0.719283225 C0.456661763,0.719283225 0.488658394,0.712616964 0.518705991,0.699284444 C0.548753589,0.685951924 0.57490312,0.667786365 0.596829745,0.644954424 C0.619081209,0.621955826 0.63646009,0.595124129 0.649291226,0.564292675 C0.661959943,0.533461222 0.668294301,0.500296577 0.668294301,0.464798742 C0.668294301,0.429967532 0.661959943,0.396802888 0.649291226,0.365804778 C0.63646009,0.334640012 0.619081209,0.307808315 0.596829745,0.28514303 C0.57490312,0.262477745 0.548753589,0.244478843 0.518705991,0.231146322 C0.488658394,0.217813802 0.456661763,0.211147542 0.422553679,0.211147542 C0.387471079,0.211147542 0.35482477,0.217813802 0.324614753,0.231146322 C0.294242317,0.244478843 0.267930367,0.262477745 0.245516483,0.28514303 C0.223265019,0.307808315 0.205561299,0.334640012 0.192892583,0.365804778 C0.180223866,0.396802888 0.173889507,0.429967532 0.173889507,0.464798742 C0.173889507,0.500296577 0.180223866,0.533461222 0.192892583,0.564292675 C0.205561299,0.595124129 0.223265019,0.621955826 0.245516483,0.644954424 C0.267930367,0.667786365 0.294242317,0.685951924 0.324614753,0.699284444 C0.35482477,0.712616964 0.387471079,0.719283225 0.422553679,0.719283225 L0.422553679,0.719283225 Z M0.422553679,0.113320174 C0.471441933,0.113320174 0.517081797,0.122652938 0.559960531,0.14115181 C0.602676845,0.159650682 0.639870898,0.184815814 0.67154269,0.216647206 C0.703539321,0.248645255 0.728551916,0.285642999 0.746742894,0.328140408 C0.765258711,0.370804473 0.77419178,0.416135043 0.77419178,0.464798742 C0.77419178,0.512962472 0.765258711,0.558293041 0.746742894,0.601123763 C0.728551916,0.643954484 0.703539321,0.681285542 0.67154269,0.713450247 C0.639870898,0.745448296 0.602676845,0.770780085 0.559960531,0.789278957 C0.517081797,0.807777829 0.471441933,0.817110593 0.422553679,0.817110593 C0.372853329,0.817110593 0.326076528,0.807777829 0.283035375,0.789278957 C0.239669383,0.770780085 0.20231291,0.745448296 0.17031628,0.713450247 C0.138644488,0.681285542 0.113794312,0.643954484 0.0957657538,0.601123763 C0.0775747759,0.558293041 0.0686417063,0.512962472 0.0686417063,0.464798742 C0.0686417063,0.416135043 0.0775747759,0.370804473 0.0957657538,0.328140408 C0.113794312,0.285642999 0.138644488,0.248645255 0.17031628,0.216647206 C0.20231291,0.184815814 0.239669383,0.159650682 0.283035375,0.14115181 C0.326076528,0.122652938 0.372853329,0.113320174 0.422553679,0.113320174 L0.422553679,0.113320174 Z" id="Fill-21" fill="#1D1D1B" mask="url(#mask-2)"></path>
                                        </g>
                                        <g id="Group-26">
                                            <mask id="mask-4" fill="white">
                                                <use xlink:href="#path-3"></use>
                                            </mask>
                                            <g id="Clip-25"></g>
                                            <path d="M13.3526756,11.4356548 C13.3526756,7.82168765 14.9510941,4.6037797 17.4397011,2.52140667 C15.6046537,0.986021127 13.2864085,0.0665980225 10.7634254,0.0665980225 C4.8189874,0.0665980225 -1.38056529e-05,5.15674598 -1.38056529e-05,11.4356548 C-1.38056529e-05,17.7147094 4.8189874,22.8048574 10.7634254,22.8048574 C13.2864085,22.8048574 15.6046537,21.8854343 17.4397011,20.3499029 C14.9510941,18.2675299 13.3526756,15.0497677 13.3526756,11.4356548" id="Fill-24" fill="#E30E17" mask="url(#mask-4)"></path>
                                        </g>
                                        <path d="M13.3526756,11.4356548 C13.3526756,15.0497677 14.9510941,18.2675299 17.4397011,20.3499029 C19.9284462,18.2675299 21.5268647,15.0497677 21.5268647,11.4356548 C21.5268647,7.82168765 19.9284462,4.6037797 17.4397011,2.52140667 C14.9510941,4.6037797 13.3526756,7.82168765 13.3526756,11.4356548" id="Fill-27" fill="#EA600A"></path>
                                        <path d="M34.9659905,17.6458032 L34.9659905,17.3093237 L34.8597682,17.5996394 L34.7421765,17.5996394 L34.6359542,17.310157 L34.6359542,17.6458032 L34.5251841,17.6458032 L34.5251841,17.1609994 L34.6840303,17.1609994 L34.8012972,17.4714805 L34.9179144,17.1609994 L35.0767606,17.1609994 L35.0767606,17.6458032 L34.9659905,17.6458032 Z M34.1722467,17.6458032 L34.1722467,17.2654931 L34.0223335,17.2654931 L34.0223335,17.1609994 L34.4329299,17.1609994 L34.4329299,17.2654931 L34.2830167,17.2654931 L34.2830167,17.6458032 L34.1722467,17.6458032 Z" id="Fill-29" fill="#F59F00"></path>
                                        <g id="Group-33" transform="translate(17.395123, 0.000000)">
                                            <mask id="mask-6" fill="white">
                                                <use xlink:href="#path-5"></use>
                                            </mask>
                                            <g id="Clip-32"></g>
                                            <path d="M6.72103362,0.0666271874 C4.19805055,0.0666271874 1.87980531,0.986050292 0.0446198702,2.52143584 C2.53336492,4.60380886 4.13178342,7.82171682 4.13178342,11.435684 C4.13178342,15.0497969 2.53336492,18.2674132 0.0446198702,20.3499321 C1.87980531,21.8854634 4.19805055,22.8048865 6.72103362,22.8048865 C12.6654717,22.8048865 17.4844729,17.7145928 17.4844729,11.435684 C17.4844729,5.15677515 12.6654717,0.0666271874 6.72103362,0.0666271874" id="Fill-31" fill="#F59F00" mask="url(#mask-6)"></path>
                                        </g>
                                    </g>
                                </g>
                            </g>
                        </g>
                    </g>
                </g>
            </g>
        </g>
    </g>
</svg>