<?xml version="1.0" encoding="UTF-8"?>
<svg width="36px" height="31px" viewBox="0 0 36 31" version="1.1" xmlns="http://www.w3.org/2000/svg" xmlns:xlink="http://www.w3.org/1999/xlink">
    <!-- Generator: Sketch 54.1 (76490) - https://sketchapp.com -->
    <title>Master CARD</title>
    <desc>Created with Sketch.</desc>
    <defs>
        <polygon id="path-1" points="0.0686417063 0.113320174 0.668359269 0.113320174 0.668359269 0.729122208 0.0686417063 0.729122208"></polygon>
        <polygon id="path-3" points="0 0.0666417698 17.4397011 0.0666417698 17.4397011 22.8048574 0 22.8048574"></polygon>
        <polygon id="path-5" points="0.0446198702 0.0666417698 17.4844729 0.0666417698 17.4844729 22.8048865 0.0446198702 22.8048865"></polygon>
    </defs>
    <g id="Page-1" stroke="none" stroke-width="1" fill="none" fill-rule="evenodd">
        <g id="Artboard" transform="translate(-472.000000, -386.000000)">
            <g id="Group-5" transform="translate(28.000000, 38.000000)">
                <g id="Group">
                    <g id="Group-24" transform="translate(131.000000, 107.000000)">
                        <g id="Group-46" transform="translate(0.000000, 6.000000)">
                            <g id="Group-17" transform="translate(313.000000, 235.000000)">
                                <g id="Master-CARD">
                                    <rect id="Rectangle" fill="#FFFFFF" x="0" y="0" width="36" height="31"></rect>
                                    <path d="M5.98283155,25.872712 C5.88274057,25.7666976 5.76401196,25.6843068 5.62650765,25.6255396 C5.48900335,25.5667723 5.33852173,25.5373158 5.17492475,25.5373158 C5.0883633,25.5373158 4.9984885,25.5453361 4.90516229,25.5609393 C4.81197413,25.5768342 4.72058071,25.6045408 4.63112008,25.6444967 C4.54165945,25.6843068 4.45661662,25.7394284 4.3757155,25.8097158 C4.29495243,25.880149 4.22481971,25.9688103 4.16517929,26.0758454 C4.06895389,25.9078557 3.93862853,25.7761762 3.7742032,25.6806612 C3.60977787,25.5851462 3.42174488,25.5373158 3.21010422,25.5373158 C3.13900511,25.5373158 3.06542098,25.5441695 2.98935183,25.557877 C2.91342074,25.5715845 2.83790382,25.5952081 2.76293912,25.6287477 C2.68783637,25.6624331 2.61618503,25.7079304 2.54798511,25.7656768 C2.47964713,25.8234233 2.41765974,25.8963355 2.36188491,25.9845593 L2.36188491,25.616061 L1.76175317,25.616061 L1.76175317,28.632877 L2.36754522,28.632877 L2.36754522,26.9607081 C2.36754522,26.8326743 2.38687314,26.7187854 2.42539091,26.6190415 C2.46377063,26.5194434 2.51526571,26.435886 2.57973811,26.3686609 C2.64407245,26.3014358 2.71958937,26.2506889 2.80615082,26.2159827 C2.89271226,26.1812765 2.98507208,26.1640692 3.08323027,26.1640692 C3.28700171,26.1640692 3.44535255,26.2323151 3.55786862,26.3686609 C3.67038469,26.5051526 3.7265737,26.7004115 3.7265737,26.9544377 L3.7265737,28.632877 L4.3325038,28.632877 L4.3325038,26.9607081 C4.3325038,26.8326743 4.35169366,26.7187854 4.39021143,26.6190415 C4.42872921,26.5194434 4.48008623,26.435886 4.54455863,26.3686609 C4.60903103,26.3014358 4.68454795,26.2506889 4.7711094,26.2159827 C4.85767084,26.1812765 4.95003066,26.1640692 5.0480508,26.1640692 C5.25196029,26.1640692 5.41017307,26.2323151 5.52268914,26.3686609 C5.63520521,26.5051526 5.69139422,26.7004115 5.69139422,26.9544377 L5.69139422,28.632877 L6.29732433,28.632877 L6.29732433,26.7371593 C6.29732433,26.5608575 6.26998914,26.3991382 6.21518069,26.252293 C6.16037225,26.105302 6.08292254,25.9788722 5.98283155,25.872712" id="Fill-1" fill="#1D1D1B"></path>
                                    <path d="M9.15427995,27.5085414 C9.11258688,27.6262217 9.05391285,27.7280072 8.97839593,27.8140436 C8.90287901,27.9002259 8.81245198,27.9677426 8.70711485,28.0171771 C8.60177772,28.0664657 8.48442967,28.09111 8.35534681,28.09111 C8.22018947,28.09111 8.09939001,28.0654449 7.99308648,28.0141147 C7.88678295,27.9626387 7.7967701,27.8933721 7.72332402,27.8061691 C7.64987795,27.7191119 7.59313672,27.6167431 7.55337644,27.4992086 C7.51361616,27.3816741 7.49373602,27.2567026 7.49373602,27.1244398 C7.49373602,26.9921771 7.51361616,26.8673513 7.55337644,26.749671 C7.59313672,26.6321365 7.64987795,26.5297677 7.72332402,26.4427106 C7.7967701,26.3556534 7.88678295,26.2862409 7.99308648,26.2349107 C8.09939001,26.1834347 8.22018947,26.1576238 8.35534681,26.1576238 C8.48442967,26.1576238 8.60177772,26.1824139 8.70711485,26.2317026 C8.81245198,26.2811371 8.90287901,26.3487996 8.97839593,26.434836 C9.05391285,26.5210183 9.11258688,26.6228037 9.15427995,26.7401924 C9.19611108,26.8578727 9.21695761,26.9859066 9.21695761,27.1244398 C9.21695761,27.262973 9.19611108,27.3910069 9.15427995,27.5085414 L9.15427995,27.5085414 Z M9.17816373,25.981322 C9.07876303,25.8470177 8.9556166,25.7393993 8.80844834,25.6586125 C8.66141814,25.5778258 8.48553412,25.5372866 8.28079629,25.5372866 C8.0800621,25.5372866 7.89327161,25.576805 7.72042484,25.6555502 C7.54744001,25.7341496 7.39640616,25.8439554 7.26718525,25.9845302 C7.1381024,26.1252507 7.03663085,26.2926572 6.96304672,26.4867495 C6.88960064,26.6809877 6.85287761,26.8934539 6.85287761,27.1244398 C6.85287761,27.3554257 6.88960064,27.5678919 6.96304672,27.7619843 C7.03663085,27.9562224 7.1381024,28.1237747 7.26718525,28.2643495 C7.39640616,28.4049242 7.54744001,28.5145842 7.72042484,28.5933294 C7.89327161,28.6720746 8.0800621,28.7114472 8.28079629,28.7114472 C8.48553412,28.7114472 8.66141814,28.6716371 8.80844834,28.5918712 C8.9556166,28.5121052 9.07876303,28.4049242 9.17816373,28.2707658 L9.17816373,28.6328478 L9.80121285,28.6328478 L9.80121285,25.6160318 L9.17816373,25.6160318 L9.17816373,25.981322 Z" id="Fill-3" fill="#1D1D1B"></path>
                                    <path d="M12.6652922,27.1197734 C12.4903746,26.9759905 12.2468428,26.8798922 11.9348351,26.8314785 L11.6398083,26.7843772 C11.5740934,26.7738779 11.5125202,26.7619203 11.4548125,26.7480669 C11.397243,26.7345053 11.3475426,26.7161314 11.3058495,26.6929453 C11.2641565,26.669905 11.2307468,26.6405943 11.2060347,26.6048673 C11.1811845,26.5692862 11.1687594,26.5251014 11.1687594,26.4727504 C11.1687594,26.3655694 11.2158367,26.2789497 11.3104054,26.2127454 C11.404698,26.1466869 11.5373703,26.1137306 11.7082843,26.1137306 C11.797745,26.1137306 11.885687,26.1220426 11.9721103,26.1388124 C12.0585337,26.1557281 12.1405393,26.176581 12.2181271,26.2018086 C12.2955768,26.2270362 12.3661237,26.2547429 12.4297677,26.2852202 C12.4932737,26.3156975 12.5471158,26.3447165 12.5907417,26.3718399 L12.8589855,25.8586837 C12.7100225,25.7577732 12.5360713,25.6796113 12.3374079,25.6239063 C12.1386065,25.5683472 11.9269659,25.5404947 11.7023479,25.5404947 C11.519423,25.5404947 11.3555499,25.5630975 11.2104525,25.6083031 C11.0653551,25.6533629 10.9416564,25.7173798 10.8392185,25.8003539 C10.7369186,25.883328 10.6583644,25.9845302 10.603694,26.1041062 C10.5490236,26.2238281 10.5218265,26.3581324 10.5218265,26.5073108 C10.5218265,26.7508376 10.603694,26.9475548 10.7677052,27.0977539 C10.9317163,27.2478073 11.172625,27.3459471 11.4907072,27.3921735 L11.7887713,27.4330043 C11.9596853,27.458232 12.0849025,27.4987712 12.1644231,27.5541845 C12.2439437,27.6098894 12.2837039,27.6807601 12.2837039,27.7667965 C12.2837039,27.8802479 12.2290336,27.9699299 12.1196928,28.0359884 C12.010352,28.1020469 11.8484117,28.1352948 11.6337338,28.1352948 C11.5165238,28.1352948 11.4117389,28.126837 11.319241,28.1100672 C11.2268812,28.0932974 11.1423906,28.0706946 11.0659073,28.0424047 C10.9892859,28.0141147 10.9208099,27.9814501 10.8602031,27.9447023 C10.7994582,27.9079545 10.7434072,27.8687278 10.6917741,27.8267303 L10.4025457,28.3209294 C10.505812,28.4028827 10.6141863,28.469087 10.7275307,28.5195423 C10.8407371,28.5697059 10.9520107,28.6090785 11.0613514,28.6375142 C11.1706922,28.66595 11.2739585,28.6846155 11.3714264,28.6942399 C11.4687562,28.7035727 11.5542132,28.7083849 11.6277974,28.7083849 C11.8325352,28.7083849 12.0158743,28.6843239 12.1778146,28.6359102 C12.3398929,28.5876423 12.4758786,28.5199797 12.5863238,28.4327767 C12.696631,28.3457195 12.7809836,28.2417467 12.8396576,28.1210041 C12.8981935,28.0004072 12.9275996,27.8675612 12.9275996,27.7227575 C12.9275996,27.4645024 12.8402098,27.2634105 12.6652922,27.1197734" id="Fill-5" fill="#1D1D1B"></path>
                                    <path d="M16.756556,26.8662868 C16.7724325,26.7570643 16.8003199,26.6567371 16.8400802,26.565451 C16.8798405,26.4743107 16.9310595,26.3954197 16.9935991,26.3293612 C17.0562767,26.2631569 17.1306892,26.21241 17.2171126,26.176683 C17.303674,26.140956 17.4025225,26.1230196 17.5137961,26.1230196 C17.7124594,26.1230196 17.8745378,26.1882032 17.9997551,26.3182786 C18.1249723,26.4484998 18.2043548,26.6312178 18.2381787,26.8662868 L16.756556,26.8662868 Z M18.4991055,25.9766119 C18.3807911,25.8370579 18.2387309,25.729002 18.072787,25.6522983 C17.906843,25.5755947 17.7244703,25.5373887 17.525807,25.5373887 C17.3149947,25.5373887 17.12282,25.5755947 16.9490068,25.6522983 C16.7749175,25.729002 16.6254023,25.8370579 16.500185,25.9766119 C16.3749678,26.1161659 16.2776379,26.2837182 16.2080574,26.4789771 C16.1384769,26.674236 16.1036867,26.8893271 16.1036867,27.1245419 C16.1036867,27.363694 16.1394433,27.5809724 16.2110947,27.7762313 C16.2826079,27.9714903 16.382837,28.1384592 16.5120579,28.2769925 C16.6414169,28.4155257 16.7953499,28.5225608 16.9742712,28.5980979 C17.1531924,28.6737808 17.349923,28.7114035 17.5646009,28.7114035 C17.7810735,28.7114035 17.98733,28.6800512 18.1830941,28.6170551 C18.3787202,28.5540589 18.5642682,28.4438156 18.7390478,28.2863252 L18.4291109,27.817208 C18.30983,27.9179727 18.1781241,27.9962804 18.0339931,28.0518395 C17.8898621,28.1075445 17.7462833,28.1352511 17.6032567,28.1352511 C17.5017852,28.1352511 17.4044553,28.1206687 17.3111291,28.0910663 C17.2176648,28.0617556 17.1333123,28.0162584 17.0576573,27.9541371 C16.9821404,27.8923076 16.917668,27.8129791 16.8638259,27.7164433 C16.81026,27.6199075 16.7733989,27.5033938 16.7536568,27.3669021 L18.864265,27.3669021 C18.8682687,27.3291336 18.8711679,27.2891777 18.8732387,27.2471803 C18.8751715,27.2051828 18.876276,27.1633312 18.876276,27.1213338 C18.876276,26.8862648 18.8428663,26.6714654 18.776323,26.477373 C18.7096417,26.2831349 18.61742,26.1161659 18.4991055,25.9766119 L18.4991055,25.9766119 Z" id="Fill-7" fill="#1D1D1B"></path>
                                    <path d="M26.7532569,27.5085414 C26.7114258,27.6262217 26.6527517,27.7280072 26.5773729,27.8140436 C26.5017179,27.9002259 26.4112909,27.9677426 26.3059537,28.0171771 C26.2006166,28.0664657 26.0834066,28.09111 25.9541857,28.09111 C25.8190284,28.09111 25.6982289,28.0654449 25.5920634,28.0141147 C25.4856218,27.9626387 25.395747,27.8933721 25.3221629,27.8061691 C25.2487168,27.7191119 25.1919756,27.6167431 25.1522153,27.4992086 C25.112455,27.3816741 25.092713,27.2567026 25.092713,27.1244398 C25.092713,26.9921771 25.112455,26.8673513 25.1522153,26.749671 C25.1919756,26.6321365 25.2487168,26.5297677 25.3221629,26.4427106 C25.395747,26.3556534 25.4856218,26.2862409 25.5920634,26.2349107 C25.6982289,26.1834347 25.8190284,26.1576238 25.9541857,26.1576238 C26.0834066,26.1576238 26.2006166,26.1824139 26.3059537,26.2317026 C26.4112909,26.2811371 26.5017179,26.3487996 26.5773729,26.434836 C26.6527517,26.5210183 26.7114258,26.6228037 26.7532569,26.7401924 C26.79495,26.8578727 26.8157965,26.9859066 26.8157965,27.1244398 C26.8157965,27.262973 26.79495,27.3910069 26.7532569,27.5085414 L26.7532569,27.5085414 Z M26.7770026,25.981322 C26.6776019,25.8470177 26.5544555,25.7393993 26.4072872,25.6586125 C26.2603951,25.5778258 26.084373,25.5372866 25.8797732,25.5372866 C25.678901,25.5372866 25.4921105,25.576805 25.3192637,25.6555502 C25.1462789,25.7341496 24.9953831,25.8439554 24.8660241,25.9845302 C24.7369413,26.1252507 24.6354697,26.2926572 24.5620237,26.4867495 C24.4884395,26.6809877 24.4517165,26.8934539 24.4517165,27.1244398 C24.4517165,27.3554257 24.4884395,27.5678919 24.5620237,27.7619843 C24.6354697,27.9562224 24.7369413,28.1237747 24.8660241,28.2643495 C24.9953831,28.4049242 25.1462789,28.5145842 25.3192637,28.5933294 C25.4921105,28.6720746 25.678901,28.7114472 25.8797732,28.7114472 C26.084373,28.7114472 26.2603951,28.6716371 26.4072872,28.5918712 C26.5544555,28.5121052 26.6776019,28.4049242 26.7770026,28.2707658 L26.7770026,28.6328478 L27.4001898,28.6328478 L27.4001898,25.6160318 L26.7770026,25.6160318 L26.7770026,25.981322 Z" id="Fill-9" fill="#1D1D1B"></path>
                                    <path d="M15.3369621,28.0313074 C15.236595,28.0711175 15.1377466,28.0910955 15.0402787,28.0910955 C14.9766346,28.0910955 14.9175464,28.0807419 14.862876,28.0595974 C14.8082056,28.0387445 14.7605761,28.0056423 14.7198495,27.9605826 C14.6791228,27.915377 14.6466795,27.8571931 14.6229338,27.7857391 C14.59905,27.7142851 14.5871771,27.6282487 14.5871771,27.527484 L14.5871771,26.2143349 L15.5878108,26.2143349 L15.5878108,25.616163 L14.5871771,25.616163 L14.5871771,24.7030104 L13.9610908,24.7030104 L13.9610908,25.616163 L13.3917456,25.616163 L13.3917456,26.2143349 L13.9610908,26.2143349 L13.9610908,27.5401707 C13.9610908,27.9410421 14.0509656,28.2364824 14.2308532,28.4264917 C14.4107409,28.6166467 14.662694,28.7114326 14.9865747,28.7114326 C15.1674287,28.7114326 15.3299213,28.6821219 15.4740523,28.6233547 C15.5693113,28.5845654 15.6576675,28.5400889 15.7403633,28.4910919 L15.5273421,27.9400213 C15.4670114,27.9739984 15.4037815,28.0046216 15.3369621,28.0313074" id="Fill-11" fill="#1D1D1B"></path>
                                    <path d="M20.9621583,25.5373449 C20.7872406,25.5373449 20.629304,25.5708845 20.4880721,25.6381096 C20.3469784,25.7053347 20.228802,25.867054 20.1334049,26.0120035 L20.1334049,25.6160901 L19.5676493,25.6160901 L19.5676493,28.6329062 L20.1393413,28.6329062 L20.1393413,26.9732782 C20.1393413,26.8453902 20.1563223,26.730918 20.1900081,26.6300075 C20.2238319,26.5293886 20.270495,26.444373 20.3302735,26.3749605 C20.3897759,26.3058397 20.4612892,26.2531971 20.5449514,26.2176159 C20.6283376,26.181889 20.7195929,26.1640984 20.8191317,26.1640984 C20.8946486,26.1640984 20.976102,26.1734311 21.0634917,26.1923883 C21.1082221,26.2020127 21.1497771,26.2139703 21.1888471,26.2278237 L21.3730145,25.5981537 C21.323038,25.5815297 21.2723713,25.5672389 21.2200478,25.5579062 C21.1434265,25.5441987 21.0575553,25.5373449 20.9621583,25.5373449" id="Fill-13" fill="#1D1D1B"></path>
                                    <path d="M29.6235902,25.5373449 C29.4486726,25.5373449 29.2907359,25.5708845 29.1495041,25.6381096 C29.0084103,25.7053347 28.8902339,25.867054 28.7948369,26.0120035 L28.7948369,25.6160901 L28.2290812,25.6160901 L28.2290812,28.6329062 L28.8007733,28.6329062 L28.8007733,26.9732782 C28.8007733,26.8453902 28.8176162,26.730918 28.85144,26.6300075 C28.8851258,26.5293886 28.931927,26.444373 28.9915674,26.3749605 C29.0512078,26.3058397 29.1227211,26.2531971 29.2062453,26.2176159 C29.2896315,26.181889 29.3810249,26.1640984 29.4804256,26.1640984 C29.5560806,26.1640984 29.6375339,26.1734311 29.7249237,26.1923883 C29.7695159,26.2020127 29.811071,26.2139703 29.850141,26.2278237 L30.0344464,25.5981537 C29.9843319,25.5815297 29.9336652,25.5672389 29.8814798,25.5579062 C29.8048584,25.5441987 29.7188492,25.5373449 29.6235902,25.5373449" id="Fill-15" fill="#1D1D1B"></path>
                                    <path d="M32.5099657,27.5085414 C32.4681345,27.6262217 32.4094605,27.7280072 32.3340816,27.8140436 C32.2585647,27.9002259 32.1679996,27.9677426 32.0628006,28.0171771 C31.9573254,28.0664657 31.8401154,28.09111 31.7110325,28.09111 C31.5757371,28.09111 31.4550757,28.0654449 31.3487722,28.0141147 C31.2423306,27.9626387 31.1524558,27.8933721 31.0788717,27.8061691 C31.0054256,27.7191119 30.9486844,27.6167431 30.9090622,27.4992086 C30.8691638,27.3816741 30.8494217,27.2567026 30.8494217,27.1244398 C30.8494217,26.9921771 30.8691638,26.8673513 30.9090622,26.749671 C30.9486844,26.6321365 31.0054256,26.5297677 31.0788717,26.4427106 C31.1524558,26.3556534 31.2423306,26.2862409 31.3487722,26.2349107 C31.4550757,26.1834347 31.5757371,26.1576238 31.7110325,26.1576238 C31.8401154,26.1576238 31.9573254,26.1824139 32.0628006,26.2317026 C32.1679996,26.2811371 32.2585647,26.3487996 32.3340816,26.434836 C32.4094605,26.5210183 32.4681345,26.6228037 32.5099657,26.7401924 C32.5516587,26.8578727 32.5725053,26.9859066 32.5725053,27.1244398 C32.5725053,27.262973 32.5516587,27.3910069 32.5099657,27.5085414 L32.5099657,27.5085414 Z M32.5337114,24.3899399 L32.5337114,25.981322 C32.4343107,25.8470177 32.3111643,25.7393993 32.1641341,25.6586125 C32.0171039,25.5778258 31.8410818,25.5372866 31.636482,25.5372866 C31.4357478,25.5372866 31.2488193,25.576805 31.0759725,25.6555502 C30.9029877,25.7341496 30.7520919,25.8439554 30.622871,25.9845302 C30.4936501,26.1252507 30.3921785,26.2926572 30.3187324,26.4867495 C30.2451483,26.6809877 30.2084253,26.8934539 30.2084253,27.1244398 C30.2084253,27.3554257 30.2451483,27.5678919 30.3187324,27.7619843 C30.3921785,27.9562224 30.4936501,28.1237747 30.622871,28.2643495 C30.7520919,28.4049242 30.9029877,28.5145842 31.0759725,28.5933294 C31.2488193,28.6720746 31.4357478,28.7114472 31.636482,28.7114472 C31.8410818,28.7114472 32.0171039,28.6716371 32.1641341,28.5918712 C32.3111643,28.5121052 32.4343107,28.4049242 32.5337114,28.2707658 L32.5337114,28.6328478 L33.1568986,28.6328478 L33.1568986,24.3899399 L32.5337114,24.3899399 Z" id="Fill-17" fill="#1D1D1B"></path>
                                    <path d="M22.4534173,26.4269615 C22.5327998,26.3419459 22.6272304,26.2758874 22.7365712,26.2286403 C22.845912,26.1812473 22.9640884,26.1576238 23.0913765,26.1576238 C23.2312278,26.1576238 23.361277,26.1812473 23.4815242,26.2286403 C23.5979059,26.2741375 23.6985491,26.3380086 23.7840061,26.4187953 L24.0840029,25.8919316 C23.9714869,25.7971458 23.844889,25.7192755 23.7039333,25.6586125 C23.5160384,25.5778258 23.3118528,25.5372866 23.0913765,25.5372866 C22.8706241,25.5372866 22.6664385,25.5778258 22.4786816,25.6586125 C22.2907867,25.7393993 22.1288464,25.8506633 21.9927226,25.9925505 C21.8567369,26.134146 21.7497431,26.3015525 21.6722934,26.4946241 C21.5947057,26.6878414 21.5559118,26.8978286 21.5559118,27.1244398 C21.5559118,27.3511968 21.5947057,27.5610382 21.6722934,27.7542556 C21.7497431,27.947473 21.8567369,28.1147336 21.9927226,28.256475 C22.1288464,28.3982163 22.2907867,28.5094804 22.4786816,28.5902671 C22.6664385,28.6710538 22.8706241,28.7114472 23.0913765,28.7114472 C23.3118528,28.7114472 23.5160384,28.6710538 23.7039333,28.5902671 C23.844889,28.5296041 23.9714869,28.4518797 24.0840029,28.356948 L23.7840061,27.8299385 C23.6985491,27.9110169 23.5979059,27.9745963 23.4815242,28.0203852 C23.361277,28.0674865 23.2312278,28.09111 23.0913765,28.09111 C22.9640884,28.09111 22.845912,28.0674865 22.7365712,28.0203852 C22.6272304,27.9731381 22.5327998,27.9069338 22.4534173,27.8217723 C22.3738967,27.7369025 22.311219,27.635117 22.2655223,27.5165617 C22.2198256,27.3978606 22.1970463,27.2672019 22.1970463,27.1244398 C22.1970463,26.9816777 22.2198256,26.851019 22.2655223,26.7324637 C22.311219,26.6137626 22.3738967,26.5119772 22.4534173,26.4269615" id="Fill-19" fill="#1D1D1B"></path>
                                    <g id="Group-23" transform="translate(34.099963, 28.077475)">
                                        <mask id="mask-2" fill="white">
                                            <use xlink:href="#path-1"></use>
                                        </mask>
                                        <g id="Clip-22"></g>
                                        <path d="M0.376751396,0.384970276 L0.376751396,0.442133457 L0.440907077,0.442133457 C0.454225471,0.442133457 0.464295477,0.439966923 0.471441933,0.435967167 C0.478588388,0.431634098 0.481999197,0.424301211 0.481999197,0.413968508 C0.481999197,0.403969118 0.478588388,0.396636232 0.471441933,0.391969849 C0.464295477,0.387470124 0.454225471,0.384970276 0.440907077,0.384970276 L0.376751396,0.384970276 Z M0.442368852,0.30897491 C0.484110649,0.30897491 0.515782441,0.318640987 0.537384228,0.337639829 C0.558986014,0.35663867 0.569705698,0.381970459 0.569705698,0.413968508 C0.569705698,0.438966984 0.562071984,0.45963239 0.546642136,0.476131384 C0.531049869,0.492630378 0.508635986,0.503463051 0.479075647,0.508629403 L0.573603764,0.620622574 L0.471441933,0.620622574 L0.386821401,0.511795876 L0.376751396,0.511795876 L0.376751396,0.620622574 L0.291481186,0.620622574 L0.291481186,0.30897491 L0.442368852,0.30897491 Z M0.422553679,0.719283225 C0.456661763,0.719283225 0.488658394,0.712616964 0.518705991,0.699284444 C0.548753589,0.685951924 0.57490312,0.667786365 0.596829745,0.644954424 C0.619081209,0.621955826 0.63646009,0.595124129 0.649291226,0.564292675 C0.661959943,0.533461222 0.668294301,0.500296577 0.668294301,0.464798742 C0.668294301,0.429967532 0.661959943,0.396802888 0.649291226,0.365804778 C0.63646009,0.334640012 0.619081209,0.307808315 0.596829745,0.28514303 C0.57490312,0.262477745 0.548753589,0.244478843 0.518705991,0.231146322 C0.488658394,0.217813802 0.456661763,0.211147542 0.422553679,0.211147542 C0.387471079,0.211147542 0.35482477,0.217813802 0.324614753,0.231146322 C0.294242317,0.244478843 0.267930367,0.262477745 0.245516483,0.28514303 C0.223265019,0.307808315 0.205561299,0.334640012 0.192892583,0.365804778 C0.180223866,0.396802888 0.173889507,0.429967532 0.173889507,0.464798742 C0.173889507,0.500296577 0.180223866,0.533461222 0.192892583,0.564292675 C0.205561299,0.595124129 0.223265019,0.621955826 0.245516483,0.644954424 C0.267930367,0.667786365 0.294242317,0.685951924 0.324614753,0.699284444 C0.35482477,0.712616964 0.387471079,0.719283225 0.422553679,0.719283225 L0.422553679,0.719283225 Z M0.422553679,0.113320174 C0.471441933,0.113320174 0.517081797,0.122652938 0.559960531,0.14115181 C0.602676845,0.159650682 0.639870898,0.184815814 0.67154269,0.216647206 C0.703539321,0.248645255 0.728551916,0.285642999 0.746742894,0.328140408 C0.765258711,0.370804473 0.77419178,0.416135043 0.77419178,0.464798742 C0.77419178,0.512962472 0.765258711,0.558293041 0.746742894,0.601123763 C0.728551916,0.643954484 0.703539321,0.681285542 0.67154269,0.713450247 C0.639870898,0.745448296 0.602676845,0.770780085 0.559960531,0.789278957 C0.517081797,0.807777829 0.471441933,0.817110593 0.422553679,0.817110593 C0.372853329,0.817110593 0.326076528,0.807777829 0.283035375,0.789278957 C0.239669383,0.770780085 0.20231291,0.745448296 0.17031628,0.713450247 C0.138644488,0.681285542 0.113794312,0.643954484 0.0957657538,0.601123763 C0.0775747759,0.558293041 0.0686417063,0.512962472 0.0686417063,0.464798742 C0.0686417063,0.416135043 0.0775747759,0.370804473 0.0957657538,0.328140408 C0.113794312,0.285642999 0.138644488,0.248645255 0.17031628,0.216647206 C0.20231291,0.184815814 0.239669383,0.159650682 0.283035375,0.14115181 C0.326076528,0.122652938 0.372853329,0.113320174 0.422553679,0.113320174 L0.422553679,0.113320174 Z" id="Fill-21" fill="#1D1D1B" mask="url(#mask-2)"></path>
                                    </g>
                                    <g id="Group-26" transform="translate(0.000000, 0.079183)">
                                        <mask id="mask-4" fill="white">
                                            <use xlink:href="#path-3"></use>
                                        </mask>
                                        <g id="Clip-25"></g>
                                        <path d="M13.3526756,11.4356548 C13.3526756,7.82168765 14.9510941,4.6037797 17.4397011,2.52140667 C15.6046537,0.986021127 13.2864085,0.0665980225 10.7634254,0.0665980225 C4.8189874,0.0665980225 -1.38056529e-05,5.15674598 -1.38056529e-05,11.4356548 C-1.38056529e-05,17.7147094 4.8189874,22.8048574 10.7634254,22.8048574 C13.2864085,22.8048574 15.6046537,21.8854343 17.4397011,20.3499029 C14.9510941,18.2675299 13.3526756,15.0497677 13.3526756,11.4356548" id="Fill-24" fill="#E30E17" mask="url(#mask-4)"></path>
                                    </g>
                                    <path d="M13.3526756,11.5148375 C13.3526756,15.1289504 14.9510941,18.3467125 17.4397011,20.4290856 C19.9284462,18.3467125 21.5268647,15.1289504 21.5268647,11.5148375 C21.5268647,7.90087032 19.9284462,4.68296237 17.4397011,2.60058934 C14.9510941,4.68296237 13.3526756,7.90087032 13.3526756,11.5148375" id="Fill-27" fill="#EA600A"></path>
                                    <path d="M34.9659905,17.7249859 L34.9659905,17.3885064 L34.8597682,17.678822 L34.7421765,17.678822 L34.6359542,17.3893397 L34.6359542,17.7249859 L34.5251841,17.7249859 L34.5251841,17.2401821 L34.6840303,17.2401821 L34.8012972,17.5506632 L34.9179144,17.2401821 L35.0767606,17.2401821 L35.0767606,17.7249859 L34.9659905,17.7249859 Z M34.1722467,17.7249859 L34.1722467,17.3446757 L34.0223335,17.3446757 L34.0223335,17.2401821 L34.4329299,17.2401821 L34.4329299,17.3446757 L34.2830167,17.3446757 L34.2830167,17.7249859 L34.1722467,17.7249859 Z" id="Fill-29" fill="#F59F00"></path>
                                    <g id="Group-33" transform="translate(17.395123, 0.079183)">
                                        <mask id="mask-6" fill="white">
                                            <use xlink:href="#path-5"></use>
                                        </mask>
                                        <g id="Clip-32"></g>
                                        <path d="M6.72103362,0.0666271874 C4.19805055,0.0666271874 1.87980531,0.986050292 0.0446198702,2.52143584 C2.53336492,4.60380886 4.13178342,7.82171682 4.13178342,11.435684 C4.13178342,15.0497969 2.53336492,18.2674132 0.0446198702,20.3499321 C1.87980531,21.8854634 4.19805055,22.8048865 6.72103362,22.8048865 C12.6654717,22.8048865 17.4844729,17.7145928 17.4844729,11.435684 C17.4844729,5.15677515 12.6654717,0.0666271874 6.72103362,0.0666271874" id="Fill-31" fill="#F59F00" mask="url(#mask-6)"></path>
                                    </g>
                                </g>
                            </g>
                        </g>
                    </g>
                </g>
            </g>
        </g>
    </g>
</svg>