<?xml version="1.0" encoding="UTF-8"?>
<svg width="479px" height="608px" viewBox="0 0 479 608" version="1.1" xmlns="http://www.w3.org/2000/svg" xmlns:xlink="http://www.w3.org/1999/xlink">
    <!-- Generator: Sketch 49.3 (51167) - http://www.bohemiancoding.com/sketch -->
    <title>Group 17</title>
    <desc>Created with Sketch.</desc>
    <defs>
        <polygon id="path-1" points="0.0001 0.987 478.7121 0.987 478.7121 608.9995 0.0001 608.9995"></polygon>
        <path d="M44.851,1.012 C44.851,1.012 17.305,5.844 9.505,6.828 C1.725,7.771 0.879,15.318 0.879,15.318 C0.879,15.318 0.879,91.527 0.934,117.615 C0.934,117.615 0.73,119.258 2.101,117.198 L16.965,95.004 C17.591,94.113 18.527,93.589 19.466,93.589 C20.441,93.589 21.389,94.113 21.995,95.004 L36.868,117.198 C37.852,118.697 38.184,117.387 38.184,117.387 C37.751,57.318 37.438,10.208 37.438,10.208 L151.79,25.785 C151.79,25.785 161.557,25.785 163.469,35.828 L164.077,76.417 L167.03,275.195 L166.993,276.741 L156.895,276.741 C155.634,276.741 154.512,277.587 153.987,278.896 C153.473,280.212 153.619,281.762 154.365,282.885 L165.061,298.836 C165.255,299.311 165.547,299.734 165.862,300.01 L180.733,322.208 C181.294,323.142 182.233,323.666 183.225,323.666 C184.21,323.666 185.139,323.142 185.763,322.208 L200.59,300.01 C200.913,299.734 201.198,299.311 201.382,298.836 L212.087,282.885 C212.555,282.225 212.778,281.38 212.778,280.538 C212.778,279.978 212.703,279.412 212.456,278.896 C211.93,277.587 210.827,276.741 209.548,276.741 L200.59,276.741 L200.49,274.814 L197.012,42.516 L197.012,42.914 C196.93,36.633 196.838,32.871 196.838,32.452 C196.369,19.218 176.558,17.76 176.558,17.76 C176.558,17.76 60.754,2.46 54.315,1.577 C52.126,1.291 50.287,1.154 48.879,1.066 L48.842,1.066 C48.503,1.012 48.226,0.965 47.942,1.012 C47.096,0.965 46.441,0.965 45.918,0.965 C45.21,0.965 44.851,1.012 44.851,1.012" id="path-3"></path>
        <linearGradient x1="143.728317%" y1="44.7421383%" x2="-22.7455838%" y2="54.077488%" id="linearGradient-5">
            <stop stop-color="#BABCBE" offset="0%"></stop>
            <stop stop-color="#FEFEFE" offset="100%"></stop>
        </linearGradient>
        <path d="M8.918,0.965 C9.226,0.94 9.543,0.917 9.878,0.917 C10.212,0.917 10.565,0.94 10.942,1.012 C11.226,0.965 11.503,1.012 11.842,1.066 L11.879,1.066 C13.287,1.154 15.126,1.291 17.315,1.577 C23.754,2.46 139.558,17.76 139.558,17.76 C139.558,17.76 159.369,19.218 159.838,32.452 C159.838,32.871 159.93,36.633 160.012,42.914 L163.499,276.759 L172.548,276.741 C173.827,276.741 174.93,277.587 175.456,278.896 C175.703,279.412 175.778,279.978 175.778,280.538 C175.778,281.38 175.555,282.225 175.087,282.885 L164.382,298.836 C164.198,299.311 163.913,299.734 163.59,300.01 L148.763,322.208 C148.139,323.142 147.21,323.666 146.225,323.666 C145.233,323.666 144.294,323.142 143.733,322.208 L128.862,300.01 C128.547,299.734 128.255,299.311 128.061,298.836 L117.365,282.885 C116.619,281.762 116.473,280.212 116.987,278.896 C117.512,277.587 118.634,276.741 119.895,276.741 L129.993,276.741 L127.077,76.417 L126.469,35.828 C124.557,25.785 114.79,25.785 114.79,25.785 L0.438,10.208 C0.438,10.208 1.616,1.715 8.918,0.965 Z" id="path-6"></path>
    </defs>
    <g id="Symbols" stroke="none" stroke-width="1" fill="none" fill-rule="evenodd">
        <g id="icono/refresh" transform="translate(262.000000, 468.000000)">
            <g id="Group-17" transform="translate(-262.000000, -469.000000)">
                <g id="Group-3" transform="translate(0.000000, 0.013000)">
                    <mask id="mask-2" fill="white">
                        <use xlink:href="#path-1"></use>
                    </mask>
                    <g id="Clip-2"></g>
                    <path d="M0.0001,304.9935 C0.0001,97.4425 47.6721,0.9865 239.3551,0.9865 C431.0391,0.9865 478.7121,97.4425 478.7121,304.9935 C478.7121,512.5475 431.0391,608.9995 239.3551,608.9995 C47.6721,608.9995 0.0001,512.5475 0.0001,304.9935" id="Fill-1" fill="#06A8DF" mask="url(#mask-2)"></path>
                </g>
                <g id="Group-6" transform="translate(138.000000, 110.013000)">
                    <mask id="mask-4" fill="white">
                        <use xlink:href="#path-3"></use>
                    </mask>
                    <g id="Clip-5"></g>
                    <path d="M44.851,1.012 C44.851,1.012 17.305,5.844 9.505,6.828 C1.725,7.771 0.879,15.318 0.879,15.318 C0.879,15.318 0.879,91.527 0.934,117.615 C0.934,117.615 0.73,119.258 2.101,117.198 L16.965,95.004 C17.591,94.113 18.527,93.589 19.466,93.589 C20.441,93.589 21.389,94.113 21.995,95.004 L36.868,117.198 C37.852,118.697 38.184,117.387 38.184,117.387 C37.751,57.318 37.438,10.208 37.438,10.208 L151.79,25.785 C151.79,25.785 161.557,25.785 163.469,35.828 L164.077,76.417 L167.03,275.195 L166.993,276.741 L156.895,276.741 C155.634,276.741 154.512,277.587 153.987,278.896 C153.473,280.212 153.619,281.762 154.365,282.885 L165.061,298.836 C165.255,299.311 165.547,299.734 165.862,300.01 L180.733,322.208 C181.294,323.142 182.233,323.666 183.225,323.666 C184.21,323.666 185.139,323.142 185.763,322.208 L200.59,300.01 C200.913,299.734 201.198,299.311 201.382,298.836 L212.087,282.885 C212.555,282.225 212.778,281.38 212.778,280.538 C212.778,279.978 212.703,279.412 212.456,278.896 C211.93,277.587 210.827,276.741 209.548,276.741 L200.59,276.741 L200.49,274.814 L197.012,42.516 L197.012,42.914 C196.93,36.633 196.838,32.871 196.838,32.452 C196.369,19.218 176.558,17.76 176.558,17.76 C176.558,17.76 60.754,2.46 54.315,1.577 C52.126,1.291 50.287,1.154 48.879,1.066 L48.842,1.066 C48.503,1.012 48.226,0.965 47.942,1.012 C47.096,0.965 46.441,0.965 45.918,0.965 C45.21,0.965 44.851,1.012 44.851,1.012" id="Fill-4" fill="url(#linearGradient-5)" mask="url(#mask-4)"></path>
                </g>
                <path d="M154.9825,221.8991 L140.1215,244.0791 C139.7805,244.4051 139.5325,244.8061 139.3305,245.2331 L128.6235,261.1901 C127.8885,262.3401 127.7125,263.9261 128.2365,265.2051 C128.8085,266.5161 129.9205,267.3751 131.1445,267.3751 L139.1095,267.3751 L139.1095,268.4291 C139.5585,330.5571 140.6815,468.4621 140.7735,482.4061 C140.8755,491.0921 144.4335,495.1491 148.0665,496.9881 C150.1645,498.0051 152.1965,498.3401 153.6405,498.4041 C155.0295,498.5381 155.9865,498.4381 155.9865,498.4381 C155.9865,498.4381 275.4875,498.7741 293.6525,499.0581 C296.3745,499.1221 299.0145,499.0581 301.5155,498.8921 C302.4085,498.8601 303.2545,498.7961 304.1105,498.6991 C316.7555,497.5811 326.1195,494.1231 332.2535,490.1781 C333.4215,489.3871 334.4615,488.3991 335.2695,487.2851 C335.3065,487.2111 335.3805,487.1791 335.4265,487.1151 C339.9235,481.0261 339.6755,471.2861 339.6755,471.2861 C339.6755,471.2861 339.4555,454.0081 339.0955,427.3271 C339.0585,425.3181 337.8815,426.9321 337.8815,426.9321 L323.6645,449.1161 C323.1015,450.0041 322.2185,450.5281 321.2625,450.5281 C320.3515,450.5281 319.4515,450.0041 318.8715,449.1161 L306.6395,430.0231 C305.4235,428.1501 305.7285,430.7211 305.7285,430.7211 L306.6395,492.1181 L306.3905,492.1181 C305.3705,492.1181 304.3855,492.0861 303.3645,492.0861 C300.9915,492.0581 298.6195,492.0231 296.2535,491.9851 C292.9895,491.9561 289.7435,491.9201 286.4885,491.8881 C282.3675,491.8571 278.2555,491.7921 274.1715,491.7551 C269.7305,491.6911 265.2595,491.6591 260.8175,491.5891 C255.9885,491.5581 251.1525,491.5021 246.2675,491.4651 C241.6955,491.3871 237.0875,491.3261 232.5075,491.2951 C227.8815,491.2361 223.2265,491.1991 218.6385,491.1341 C215.0505,491.0921 211.4555,491.0611 207.8775,491.0291 L188.3785,490.8621 C185.4915,490.9691 182.9615,489.8781 181.1775,487.9071 C180.2855,486.9541 179.6035,485.8001 179.1355,484.4851 C178.5195,482.7741 178.0865,480.6041 178.0685,477.8661 C177.8575,469.3781 177.0755,368.3351 176.3945,273.4691 L176.3945,267.3751 L183.8165,267.3751 C185.0585,267.3751 186.1815,266.5161 186.7135,265.2051 C186.9355,264.6801 187.0365,264.1141 187.0365,263.5591 C187.0365,262.7451 186.8145,261.8801 186.3455,261.1901 L175.6685,245.2331 C175.4565,244.8061 175.1895,244.4051 174.8595,244.0791 L159.9955,221.8991 C159.4165,220.9751 158.4785,220.4541 157.4945,220.4541 C156.5095,220.4541 155.5905,220.9751 154.9825,221.8991" id="Fill-7" fill="#FEFEFE"></path>
                <g id="Group-11" transform="translate(175.000000, 110.013000)">
                    <mask id="mask-7" fill="white">
                        <use xlink:href="#path-6"></use>
                    </mask>
                    <g id="Clip-10"></g>
                    <polygon id="Fill-9" mask="url(#mask-7)" points="121.826 404.593 -148.523 224.357 54.389 -80.01 324.739 100.225"></polygon>
                </g>
                <g id="Group-16" transform="translate(144.000000, 484.013000)">
                    <path d="M191.2706,3.2714 C190.4606,4.3844 189.4206,5.3744 188.2526,6.1654 C182.1186,10.1114 172.7556,13.5694 160.1096,14.6864 C159.2536,14.7834 158.4076,14.8474 157.5156,14.8794 C155.0146,15.0444 152.3746,15.1104 149.6516,15.0444 C131.4876,14.7594 11.9866,14.4234 11.9866,14.4234 C11.9866,14.4234 11.0296,14.5264 9.6406,14.3914 C8.1966,14.2914 6.2836,13.9274 4.3786,12.9744 L37.1776,3.8934 C38.9606,5.8664 41.4916,6.9564 44.3786,6.8494 L63.8766,7.0154 C67.4556,7.0474 71.0506,7.0804 74.6386,7.1214 C79.2276,7.1854 83.8826,7.2224 88.5076,7.2824 C93.0876,7.3134 97.6956,7.3744 102.2676,7.4534 C107.1516,7.4894 111.9886,7.5444 116.8176,7.5774 C121.2596,7.6454 125.7296,7.6774 130.1716,7.7434 C134.2556,7.7804 138.3676,7.8434 142.4876,7.8754 C145.7436,7.9084 148.9896,7.9444 152.2536,7.9724 C154.6186,8.0084 156.9916,8.0454 159.3646,8.0734 C160.3856,8.0734 161.3696,8.1044 162.3906,8.1044 L162.9156,8.1044 C162.9156,8.1044 169.1676,8.7584 178.5416,6.9194 C182.3306,6.1924 186.6446,5.0464 191.2706,3.2714" id="Fill-12" fill="#B3B6B7"></path>
                    <polygon id="Fill-14" fill="#CBCDCC" points="35.1358 0.4852 0.6548 10.3812 4.0668 12.9532 37.0388 3.8702"></polygon>
                </g>
            </g>
        </g>
    </g>
</svg>