<?xml version="1.0" encoding="utf-8"?>
<!-- Generator: Adobe Illustrator 19.0.0, SVG Export Plug-In . SVG Version: 6.00 Build 0)  -->
<svg version="1.1" id="Layer_1" xmlns="http://www.w3.org/2000/svg" xmlns:xlink="http://www.w3.org/1999/xlink" x="0px" y="0px"
	 viewBox="0 0 388.8 172.8" style="enable-background:new 0 0 388.8 172.8;" xml:space="preserve">
<style type="text/css">
	.st0{clip-path:url(#SVGID_2_);fill:url(#SVGID_3_);}
	.st1{clip-path:url(#SVGID_5_);fill:url(#SVGID_6_);}
	.st2{fill:#73C2FD;}
	.st3{clip-path:url(#SVGID_8_);fill:url(#SVGID_9_);}
	.st4{clip-path:url(#SVGID_11_);fill:url(#SVGID_12_);}
	.st5{clip-path:url(#SVGID_14_);fill:url(#SVGID_15_);}
	.st6{opacity:0.5;}
	.st7{clip-path:url(#SVGID_17_);fill:#FFFF00;}
	.st8{clip-path:url(#SVGID_19_);fill:#FFFF00;}
	.st9{clip-path:url(#SVGID_21_);fill:url(#SVGID_22_);}
	.st10{clip-path:url(#SVGID_24_);fill:url(#SVGID_25_);}
</style>
<g>
	<g>
		<defs>
			<path id="SVGID_1_" d="M43.1,23.3c-4.4,0-8,3.4-8,7.8v70.7c0,7.5,1.4,14.6,4.1,20.9c5.4,8.2,14.6,17.3,28.9,17.3
				c21.6,0,31.7-17.8,31.7-17.8l-0.3-0.3c-4,5.7-9.8,9.3-16.7,9.3c-15.1,0-24-13.1-24-29.4c0-8.7,2.2-16.6,6.8-22
				c0,0,8.4-12.5,30-12.5c18,0,27.9,14.4,32.3,23.3c-3.6-21.3-18.2-37.1-44.6-37.1c-10.6,0-19.5,2.2-26.5,6.1V31.1
				c0-4.4-3.5-7.8-7.9-7.8H43.1z"/>
		</defs>
		<clipPath id="SVGID_2_">
			<use xlink:href="#SVGID_1_"  style="overflow:visible;"/>
		</clipPath>
		
			<linearGradient id="SVGID_3_" gradientUnits="userSpaceOnUse" x1="-0.889" y1="1078.6906" x2="-0.5866" y2="1078.6906" gradientTransform="matrix(0 385.7541 385.7541 0 -416027.8125 366.2507)">
			<stop  offset="0" style="stop-color:#73C2FD"/>
			<stop  offset="0.3397" style="stop-color:#72BFFD"/>
			<stop  offset="0.5541" style="stop-color:#6EB7FD"/>
			<stop  offset="0.7337" style="stop-color:#67A8FE"/>
			<stop  offset="0.8933" style="stop-color:#5E94FE"/>
			<stop  offset="1" style="stop-color:#5681FF"/>
		</linearGradient>
		<rect x="35.1" y="23.3" class="st0" width="92.8" height="116.6"/>
	</g>
	<g>
		<defs>
			<path id="SVGID_4_" d="M65.6,79.8c3.9-4.6,9.6-7.4,17.2-7.4c15.3,0,22.6,13.1,22.6,29.4c0,7.8-2.1,14.8-5.8,20.1
				c0,0-9.8,18.1-31.4,18.1c-14.3,0-23.5-9.1-28.9-17.3c6.9,16.2,22.3,27.4,44.2,27.4c26.7,0,45.4-21.6,45.4-48.3
				c0-3.9-0.3-7.6-0.9-11.2c-4.4-8.9-14.3-23.3-32.3-23.3C73.9,67.4,65.6,79.8,65.6,79.8"/>
		</defs>
		<clipPath id="SVGID_5_">
			<use xlink:href="#SVGID_4_"  style="overflow:visible;"/>
		</clipPath>
		
			<linearGradient id="SVGID_6_" gradientUnits="userSpaceOnUse" x1="2.3212" y1="1081.8668" x2="2.6236" y2="1081.8668" gradientTransform="matrix(0 -273.6629 -273.6629 0 296150.8125 785.3412)">
			<stop  offset="0" style="stop-color:#73C2FD"/>
			<stop  offset="0.3397" style="stop-color:#72BFFD"/>
			<stop  offset="0.5541" style="stop-color:#6EB7FD"/>
			<stop  offset="0.7337" style="stop-color:#67A8FE"/>
			<stop  offset="0.8933" style="stop-color:#5E94FE"/>
			<stop  offset="1" style="stop-color:#5681FF"/>
		</linearGradient>
		<rect x="39.2" y="67.4" class="st1" width="89.6" height="82.7"/>
	</g>
	<path class="st2" d="M166.6,38.1v-6.8c0-4.4-3.7-7.9-8.1-7.9h-5.8c-4.4,0-7.8,3.5-7.8,7.9v30.2C148.8,45.6,157.8,39.4,166.6,38.1"
		/>
	<g>
		<defs>
			<path id="SVGID_7_" d="M144.8,61.4v79.7c0,4.4,3.4,7.7,7.8,7.7h5.8c4.4,0,8.1-3.3,8.1-7.7v-103C157.8,39.4,148.8,45.6,144.8,61.4
				"/>
		</defs>
		<clipPath id="SVGID_8_">
			<use xlink:href="#SVGID_7_"  style="overflow:visible;"/>
		</clipPath>
		
			<linearGradient id="SVGID_9_" gradientUnits="userSpaceOnUse" x1="3.5545" y1="1080.4835" x2="3.8568" y2="1080.4835" gradientTransform="matrix(-186.1984 -186.1984 -186.1984 186.1984 202032.6875 -200398.2188)">
			<stop  offset="0" style="stop-color:#73C2FD"/>
			<stop  offset="0.3397" style="stop-color:#72BFFD"/>
			<stop  offset="0.5541" style="stop-color:#6EB7FD"/>
			<stop  offset="0.7337" style="stop-color:#67A8FE"/>
			<stop  offset="0.8933" style="stop-color:#5E94FE"/>
			<stop  offset="1" style="stop-color:#5681FF"/>
		</linearGradient>
		<polygon class="st3" points="155.7,159.7 89.5,93.4 155.7,27.2 222,93.4 		"/>
	</g>
	<g>
		<defs>
			<path id="SVGID_10_" d="M182.9,88.6v51.7c0,4.4,3.7,7.9,8.1,7.9h5.8c4.4,0,8.4-3.5,8.4-7.9V70.5
				C196.5,71.2,188.4,75.9,182.9,88.6"/>
		</defs>
		<clipPath id="SVGID_11_">
			<use xlink:href="#SVGID_10_"  style="overflow:visible;"/>
		</clipPath>
		
			<linearGradient id="SVGID_12_" gradientUnits="userSpaceOnUse" x1="5.2578" y1="1080.8657" x2="5.5601" y2="1080.8657" gradientTransform="matrix(-134.1845 -134.1845 -134.1845 134.1845 145957.7188 -144197.8906)">
			<stop  offset="0" style="stop-color:#73C2FD"/>
			<stop  offset="0.3397" style="stop-color:#72BFFD"/>
			<stop  offset="0.5541" style="stop-color:#6EB7FD"/>
			<stop  offset="0.7337" style="stop-color:#67A8FE"/>
			<stop  offset="0.8933" style="stop-color:#5E94FE"/>
			<stop  offset="1" style="stop-color:#5681FF"/>
		</linearGradient>
		<polygon class="st4" points="194.1,159.4 144.1,109.4 194.1,59.3 244.2,109.4 		"/>
	</g>
	<path class="st2" d="M205.3,70.5v-6.8c0-4.4-4-8.3-8.4-8.3h-5.8c-4.4,0-8.1,3.9-8.1,8.3v24.9C188.4,75.9,196.5,71.2,205.3,70.5"/>
	<g>
		<defs>
			<path id="SVGID_13_" d="M183.3,46.6c1,1.7,3.2,2.5,5.2,1.4l15.9-9.2c2.5-1.4,2.5-5.1,0-6.5l-1.5-0.9
				C195.6,32.4,188.1,36.5,183.3,46.6"/>
		</defs>
		<clipPath id="SVGID_14_">
			<use xlink:href="#SVGID_13_"  style="overflow:visible;"/>
		</clipPath>
		
			<linearGradient id="SVGID_15_" gradientUnits="userSpaceOnUse" x1="21.9957" y1="1087.2452" x2="22.298" y2="1087.2452" gradientTransform="matrix(-26.5518 -26.5518 -26.5518 26.5518 29651.4062 -28240.0059)">
			<stop  offset="0" style="stop-color:#73C2FD"/>
			<stop  offset="0.5271" style="stop-color:#639EFE"/>
			<stop  offset="1" style="stop-color:#5681FF"/>
		</linearGradient>
		<polygon class="st5" points="195.1,60.9 174.5,40.3 195.1,19.7 215.6,40.3 		"/>
	</g>
	<path class="st2" d="M202.8,31.5l-14.3-8.3c-2.5-1.4-5.6,0.4-5.6,3.2v18.3c0,0.7,0.1,1.3,0.4,1.8C188.2,36.5,195.6,32.4,202.8,31.5
		"/>
	<g class="st6">
		<g>
			<defs>
				<polygon id="SVGID_16_" points="244.6,83.8 244.6,83.8 244.6,83.8 				"/>
			</defs>
			<clipPath id="SVGID_17_">
				<use xlink:href="#SVGID_16_"  style="overflow:visible;"/>
			</clipPath>
			<path class="st7" d="M244.6,83.8C244.6,83.8,244.6,83.8,244.6,83.8L244.6,83.8z"/>
		</g>
	</g>
	<g class="st6">
		<g>
			<defs>
				<rect id="SVGID_18_" x="299.3" y="82.9" width="0.5" height="1"/>
			</defs>
			<clipPath id="SVGID_19_">
				<use xlink:href="#SVGID_18_"  style="overflow:visible;"/>
			</clipPath>
			<path class="st8" d="M299.4,83.9c0.1-0.3,0.2-0.7,0.3-1c-0.3,0.6-0.5,0.9-0.5,0.9L299.4,83.9z"/>
		</g>
	</g>
	<path class="st2" d="M321.5,52.7h-8.2c-9.9,0-20.3,6.2-25.5,14.5c-5.2-8.2-15.5-14.5-25.4-14.5h-8.2c-11.8,0-30,8.5-32,26.5
		c-0.1,0.6-0.1,61.1-0.1,61.1c0,4.4,3.5,8,7.9,8h5.8c4.4,0,8-3.5,8-7.9V88.4c0-1.6,0.2-3.1,0.7-4.9h0v0.3c1.2-2.5,2.3-4.7,4.1-6.5
		c4.2-5.6,11.9-12.8,23.6-12.8c12.7,0,24.4,8.7,26.8,25.1v-3.2c0.3-0.9,0.4-1.7,0.6-2.5l-0.1-0.1c0,0,0.2-0.3,0.5-0.9
		c0.7-1.8,1.7-3.4,3-4.8c4.1-5.7,11.9-13.5,24.1-13.5c12.6,0,24.3,8.6,26.7,24.8c0-6,0-10-0.1-10.1
		C351.5,61.2,333.4,52.7,321.5,52.7"/>
	<g>
		<defs>
			<path id="SVGID_20_" d="M248.5,77.2c2.8-2.7,6.6-4.6,10.8-4.6h2.1c8.6,0,15.6,7.2,15.6,15.8v51.9c0,4.4,3.5,7.9,8,7.9h5.8
				c4.4,0,8-3.5,8-7.9V89.6c-2.4-16.4-14-25.1-26.7-25.1C260.3,64.5,252.7,71.6,248.5,77.2"/>
		</defs>
		<clipPath id="SVGID_21_">
			<use xlink:href="#SVGID_20_"  style="overflow:visible;"/>
		</clipPath>
		
			<linearGradient id="SVGID_22_" gradientUnits="userSpaceOnUse" x1="4.1945" y1="1081.1415" x2="4.4969" y2="1081.1415" gradientTransform="matrix(-193.8699 -193.8699 -193.8699 193.8699 210718.75 -208650.0625)">
			<stop  offset="0" style="stop-color:#73C2FD"/>
			<stop  offset="0.2228" style="stop-color:#70BCFD"/>
			<stop  offset="0.5094" style="stop-color:#69ACFE"/>
			<stop  offset="0.8294" style="stop-color:#5E92FE"/>
			<stop  offset="1" style="stop-color:#5681FF"/>
		</linearGradient>
		<polygon class="st9" points="273.6,173.3 206.6,106.4 273.6,39.4 340.6,106.4 		"/>
	</g>
	<g>
		<defs>
			<path id="SVGID_23_" d="M302.8,77.9c2.8-3.1,7-5.3,11.5-5.3h2.1c8.6,0,15.3,7.2,15.3,15.8v0.1v51.8c0,4.4,3.8,7.9,8.2,7.9h5.8
				c4.4,0,7.9-3.5,7.9-7.9c0,0,0-33.6-0.1-51c-2.5-16.2-14.1-24.7-26.7-24.7C314.7,64.5,306.8,72.2,302.8,77.9"/>
		</defs>
		<clipPath id="SVGID_24_">
			<use xlink:href="#SVGID_23_"  style="overflow:visible;"/>
		</clipPath>
		
			<linearGradient id="SVGID_25_" gradientUnits="userSpaceOnUse" x1="4.5175" y1="1081.4684" x2="4.8199" y2="1081.4684" gradientTransform="matrix(-194.0634 -194.0634 -194.0634 194.0634 211109.6875 -208859.0156)">
			<stop  offset="0" style="stop-color:#73C2FD"/>
			<stop  offset="0.2228" style="stop-color:#70BCFD"/>
			<stop  offset="0.5094" style="stop-color:#69ACFE"/>
			<stop  offset="0.8294" style="stop-color:#5E92FE"/>
			<stop  offset="1" style="stop-color:#5681FF"/>
		</linearGradient>
		<polygon class="st10" points="328.2,173.7 260.9,106.4 328.2,39.1 395.5,106.4 		"/>
	</g>
</g>
</svg>
