<?xml version="1.0" encoding="UTF-8"?>
<svg width="115px" height="28px" viewBox="0 0 115 28" version="1.1" xmlns="http://www.w3.org/2000/svg" xmlns:xlink="http://www.w3.org/1999/xlink">
    <!-- Generator: Sketch 50.2 (55047) - http://www.bohemiancoding.com/sketch -->
    <title>Group</title>
    <desc>Created with Sketch.</desc>
    <defs></defs>
    <g id="Page-1" stroke="none" stroke-width="1" fill="none" fill-rule="evenodd">
        <g id="PayPal-logo">
            <g id="Group">
                <path d="M42.5772857,6 L36.3696443,6 C35.9448012,6 35.5835193,6.32220109 35.5171614,6.76011855 L33.0064938,23.3765648 C32.9566618,23.7046048 33.1999741,24 33.5185429,24 L36.4820205,24 C36.9068636,24 37.2681454,23.6780643 37.3345033,23.2393506 L38.0115573,18.7574645 C38.0768982,18.3187508 38.4389428,17.9965497 38.8630232,17.9965497 L40.8280814,17.9965497 C44.9171008,17.9965497 47.2770012,15.9309064 47.8935449,11.8378378 C48.1711802,10.0468881 47.9052401,8.63997877 47.1018265,7.65453178 C46.219597,6.57247755 44.6547201,6 42.5772857,6 Z M43.2932391,12.0690052 C42.9538223,14.3942142 41.2519075,14.3942142 39.606435,14.3942142 L38.6695429,14.3942142 L39.3267657,10.0516654 C39.3659194,9.78918034 39.583553,9.59596585 39.8377978,9.59596585 L40.2672173,9.59596585 C41.3881827,9.59596585 42.4455869,9.59596585 42.991959,10.2629274 C43.3179009,10.6607688 43.4175648,11.2520901 43.2932391,12.0690052 Z" id="Fill-1" fill="#28356A"></path>
                <path d="M62.4689751,12.2783518 L59.4098545,12.2783518 C59.1492589,12.2783518 58.9239849,12.4625701 58.8839537,12.7128337 L58.748423,13.5402978 L58.5346613,13.2404369 C57.8724449,12.3107418 56.3954747,12 54.9216442,12 C51.5409654,12 48.6537437,14.476319 48.0914746,17.9498967 C47.7992203,19.6825102 48.2147081,21.3394627 49.2311881,22.4948758 C50.1634192,23.5571676 51.4972711,24 53.0841311,24 C55.808088,24 57.3182868,22.3061027 57.3182868,22.3061027 L57.1819712,23.1282527 C57.1306893,23.4425372 57.3810809,23.7244317 57.7070871,23.7244317 L60.4624411,23.7244317 C60.9006917,23.7244317 61.2706538,23.4172325 61.3397273,22.9989456 L62.9930444,12.8727595 C63.0453728,12.5610054 62.7957662,12.2783518 62.4689751,12.2783518 Z M58.2047305,18.0366918 C57.9095981,19.7267935 56.5226328,20.8614567 54.7534083,20.8614567 C53.865133,20.8614567 53.1552977,20.5858884 52.6992554,20.0638522 C52.2471377,19.5453587 52.0755004,18.8072203 52.219142,17.9850702 C52.4949128,16.3093923 53.9051643,15.1375311 55.6474397,15.1375311 C56.5160918,15.1375311 57.2222641,15.4168951 57.6874639,15.9432331 C58.1534487,16.4753912 58.3384297,17.2180844 58.2047305,18.0366918 Z" id="Fill-2" fill="#28356A"></path>
                <path d="M78.4592794,12 L75.3404955,12 C75.0429503,12 74.7634541,12.1459572 74.5949071,12.39018 L70.2936396,18.6448517 L68.4704118,12.6341407 C68.3557467,12.258111 68.0043195,12 67.6061768,12 L64.5418058,12 C64.1691443,12 63.910617,12.3592591 64.0289981,12.7054161 L67.4641726,22.6572332 L64.2347051,27.1580602 C63.9806901,27.5126026 64.2365631,28 64.6753163,28 L67.7901187,28 C68.085806,28 68.3623824,27.8577114 68.5301332,27.6184674 L78.9025449,12.837223 C79.1509859,12.4837289 78.8959092,12 78.4592794,12" id="Fill-3" fill="#28356A"></path>
                <path d="M87.5774846,6 L81.3687874,6 C80.9449413,6 80.5836424,6.32220109 80.5172814,6.76011855 L78.0064953,23.3765648 C77.956661,23.7046048 78.1999848,24 78.5167888,24 L81.7028809,24 C81.9985816,24 82.2518213,23.7746716 82.2980961,23.4675985 L83.0107779,18.7574645 C83.0761219,18.3187508 83.4384379,17.9965497 83.862284,17.9965497 L85.8266721,17.9965497 C89.9166472,17.9965497 92.2758962,15.9309064 92.8932317,11.8378378 C93.1718972,10.0468881 92.9041648,8.63997877 92.1007133,7.65453178 C91.2192049,6.57247755 89.6552712,6 87.5774846,6 Z M88.293726,12.0690052 C87.9550559,14.3942142 86.2530608,14.3942142 84.6064937,14.3942142 L83.6708286,14.3942142 L84.3288452,10.0516654 C84.3677465,9.78918034 84.5838648,9.59596585 84.8388844,9.59596585 L85.2683242,9.59596585 C86.3883254,9.59596585 87.4467965,9.59596585 87.9931944,10.2629274 C88.3191517,10.6607688 88.4180576,11.2520901 88.293726,12.0690052 Z" id="Fill-4" fill="#298FC2"></path>
                <path d="M107.465741,12.2783518 L104.408266,12.2783518 C104.145823,12.2783518 103.922629,12.4625701 103.88338,12.7128337 L103.747841,13.5402978 L103.53302,13.2404369 C102.870763,12.3107418 101.39475,12 99.9205686,12 C96.5399463,12 93.6535962,14.476319 93.091293,17.9498967 C92.7998059,19.6825102 93.2134873,21.3394627 94.2297673,22.4948758 C95.1641482,23.5571676 96.4959878,24 98.0832056,24 C100.807066,24 102.317618,22.3061027 102.317618,22.3061027 L102.181294,23.1282527 C102.130009,23.4425372 102.380154,23.7244317 102.708274,23.7244317 L105.46301,23.7244317 C105.899194,23.7244317 106.27101,23.4172325 106.339303,22.9989456 L107.993505,12.8727595 C108.044005,12.5610054 107.793598,12.2783518 107.465741,12.2783518 Z M103.201499,18.0366918 C102.90818,19.7267935 101.519038,20.8614567 99.7497059,20.8614567 C98.8632083,20.8614567 98.1514984,20.5858884 97.6954284,20.0638522 C97.2435449,19.5453587 97.0734671,18.8072203 97.2152858,17.9850702 C97.492905,16.3093923 98.9014104,15.1375311 100.643791,15.1375311 C101.512496,15.1375311 102.218711,15.4168951 102.683939,15.9432331 C103.151784,16.4753912 103.336776,17.2180844 103.201499,18.0366918 Z" id="Fill-5" fill="#298FC2"></path>
                <path d="M110.772411,6.45674098 L108.007056,23.3765924 C107.952968,23.7046178 108.216782,24 108.560624,24 L111.340881,24 C111.803107,24 112.194965,23.6780786 112.265886,23.2393843 L114.992884,6.62446921 C115.047247,6.29644374 114.783157,6 114.439316,6 L111.326255,6 C111.051403,6.00079618 110.814909,6.19426752 110.772411,6.45674098" id="Fill-6" fill="#298FC2"></path>
                <path d="M6.81136352,27 L7.30115296,23.9297393 L6.21007943,23.9046263 L1,23.9046263 L4.62082157,1.24776452 C4.6321022,1.17915679 4.66856751,1.11546811 4.7218226,1.07016111 C4.77534004,1.02485412 4.84354853,1 4.9149051,1 L13.6998965,1 C16.6165966,1 18.6292718,1.59882899 19.6799449,2.78095314 C20.1726201,3.33551072 20.4863792,3.91518133 20.6382742,4.55284488 C20.7975148,5.22209388 20.8001382,6.02156812 20.6448327,6.99683349 L20.6335521,7.06777129 L20.6335521,7.69274889 L21.1262273,7.9682154 C21.5409874,8.18543007 21.8707492,8.43397128 22.1236453,8.71849919 C22.5449639,9.19279868 22.8175355,9.79551112 22.932703,10.5098082 C23.0518055,11.2445582 23.0124544,12.1191126 22.8175355,13.1091351 C22.5927099,14.2477645 22.2293685,15.2395993 21.7385297,16.0509828 C21.2873043,16.7986776 20.7122542,17.4189951 20.0293823,17.8995081 C19.3774665,18.3562026 18.6030378,18.7028658 17.7273457,18.9247406 C16.8786746,19.142732 15.9111634,19.2527632 14.8499967,19.2527632 L14.1663377,19.2527632 C13.6775976,19.2527632 13.2027616,19.4264832 12.8299759,19.7379364 C12.4561409,20.055862 12.2090163,20.4902914 12.1331999,20.9653675 L12.0815189,21.2418696 L11.2160581,26.6535957 L11.1769694,26.8521698 C11.1664757,26.9150818 11.1486366,26.9464083 11.1224026,26.9676379 C11.0990543,26.9870551 11.0654747,27 11.0326822,27 L6.81136352,27" id="Fill-7" fill="#28356A"></path>
                <path d="M21.6525259,7 C21.6267807,7.16698191 21.5968747,7.33762226 21.563588,7.51296633 C20.4151967,13.4380802 16.4860653,15.4849805 11.4680945,15.4849805 L8.9130799,15.4849805 C8.29935628,15.4849805 7.78211209,15.9326174 7.68667287,16.5409646 L6.00803476,27.2406112 C5.94588224,27.6401657 6.25222394,28 6.65322471,28 L11.1848975,28 C11.7213856,28 12.1772574,27.608285 12.2617744,27.0765038 L12.3062434,26.8452378 L13.1594752,21.4043453 L13.2143463,21.1059207 C13.2978231,20.5723103 13.7547351,20.180334 14.2912232,20.180334 L14.9689197,20.180334 C19.359384,20.180334 22.7964963,18.3892636 23.8010787,13.2057689 C24.2205432,11.0404918 24.0033994,9.23243573 22.8929758,7.96086459 C22.5569881,7.57751176 22.1401241,7.259227 21.6525259,7" id="Fill-8" fill="#298FC2"></path>
                <g id="Group-12">
                    <path d="M20.5856386,6.69713542 C20.4067229,6.64583333 20.222241,6.59947917 20.032988,6.55755208 C19.8426747,6.51666667 19.6478554,6.48046875 19.4472048,6.44869792 C18.7450602,6.33723958 17.9755904,6.284375 17.1515181,6.284375 L10.1944819,6.284375 C10.022988,6.284375 9.86024096,6.32239583 9.71472289,6.39114583 C9.39373494,6.54270833 9.15544578,6.84114583 9.09766265,7.20651042 L7.61756627,16.4164062 L7.57515663,16.6848958 C7.67243373,16.0786458 8.19963855,15.6325521 8.82518072,15.6325521 L11.4293976,15.6325521 C16.544,15.6325521 20.5487952,13.5916667 21.7193012,7.68802083 C21.7542892,7.51328125 21.7837108,7.34322917 21.8099518,7.17682292 C21.5138795,7.02239583 21.1931566,6.89036458 20.8477831,6.77786458 C20.7624337,6.75 20.6744337,6.72317708 20.5856386,6.69713542" id="Fill-9" fill="#22284F"></path>
                    <path d="M9.09766265,7.20651042 C9.15544578,6.84114583 9.39373494,6.54270833 9.71472289,6.3921875 C9.8613012,6.32317708 10.022988,6.28515625 10.1944819,6.28515625 L17.1515181,6.28515625 C17.9755904,6.28515625 18.7450602,6.33828125 19.4472048,6.44973958 C19.6478554,6.48125 19.8426747,6.51770833 20.032988,6.55859375 C20.222241,6.60026042 20.4067229,6.646875 20.5856386,6.69791667 C20.6744337,6.72395833 20.7624337,6.75104167 20.8485783,6.77786458 C21.1939518,6.89036458 21.5149398,7.0234375 21.811012,7.17682292 C22.1593012,4.99479167 21.8080964,3.50911458 20.6073735,2.16380208 C19.2833976,0.682552083 16.8941446,0.0486979167 13.8366747,0.0486979167 L4.96033735,0.0486979167 C4.33585542,0.0486979167 3.80308434,0.494791667 3.70660241,1.10208333 L0.00954216867,24.1263021 C-0.0633493976,24.5817708 0.294216867,24.9927083 0.761783133,24.9927083 L6.24163855,24.9927083 L9.09766265,7.20651042" id="Fill-11" fill="#28356A"></path>
                </g>
            </g>
        </g>
    </g>
</svg>