<?xml version="1.0" encoding="utf-8"?>
<!-- Generator: Adobe Illustrator 14.0.0, SVG Export Plug-In . SVG Version: 6.00 Build 43363)  -->
<!DOCTYPE svg PUBLIC "-//W3C//DTD SVG 1.1//EN" "http://www.w3.org/Graphics/SVG/1.1/DTD/svg11.dtd">
<svg version="1.1" id="Capa_1" xmlns="http://www.w3.org/2000/svg" xmlns:xlink="http://www.w3.org/1999/xlink" x="0px" y="0px"
	 width="313px" height="208px" viewBox="0 0 313 208" enable-background="new 0 0 313 208" xml:space="preserve">
<title>banner</title>
<desc>Created with Sketch.</desc>
<g id="Page-1">
	<g id="banner">
		<g id="Group-4">
			<g id="Group-16">
				<g id="Group-20">
				</g>
			</g>
		</g>
		<g id="Mask">
		</g>
	</g>
	<path fill="#FFFFFF" d="M128.818,155.801C76.706,157.963,34.144,143.731,0,121.57V209h313V72.996
		C268.147,131.061,205.557,152.605,128.818,155.801z"/>
</g>
</svg>
