<?xml version="1.0" encoding="UTF-8"?>
<svg width="10px" height="10px" viewBox="0 0 10 10" version="1.1" xmlns="http://www.w3.org/2000/svg" xmlns:xlink="http://www.w3.org/1999/xlink">
    <!-- Generator: Sketch 51.3 (57544) - http://www.bohemiancoding.com/sketch -->
    <title>Triangle</title>
    <desc>Created with Sketch.</desc>
    <defs></defs>
    <g id="HOME-2.0" stroke="none" stroke-width="1" fill="none" fill-rule="evenodd">
        <g id="D-1---HOME-ESHOP" transform="translate(-385.000000, -1833.000000)" fill="#50535A" fill-rule="nonzero">
            <g id="Group-12" transform="translate(291.000000, 1713.000000)">
                <g id="Group-5" transform="translate(0.000000, 116.000000)">
                    <path d="M103.040612,10.5515167 L96.5107142,13.8164658 C95.6537302,14.2449578 94.6116461,13.8975964 94.1831541,13.0406125 C94.0627067,12.7997176 94,12.5340878 94,12.2647591 L94,5.73486084 C94,4.77672366 94.7767237,4 95.7348608,4 C96.0041895,4 96.2698193,4.0627067 96.5107142,4.18315413 L103.040612,7.44810327 C103.897596,7.87659525 104.244958,8.91867939 103.816466,9.77566334 C103.648594,10.1114065 103.376356,10.3836451 103.040612,10.5515167 Z" id="Triangle"></path>
                </g>
            </g>
        </g>
    </g>
</svg>