<?xml version="1.0" encoding="UTF-8"?>
<svg width="48px" height="14px" viewBox="0 0 48 14" version="1.1" xmlns="http://www.w3.org/2000/svg" xmlns:xlink="http://www.w3.org/1999/xlink">
    <!-- Generator: Sketch 46.2 (44496) - http://www.bohemiancoding.com/sketch -->
    <title>brand-mac</title>
    <desc>Created with Sketch.</desc>
    <defs></defs>
    <g id="Iconos" stroke="none" stroke-width="1" fill="none" fill-rule="evenodd">
        <g id="Logos" transform="translate(-14.000000, -39.000000)" fill-rule="nonzero">
            <g id="brand-mac" transform="translate(14.000000, 39.000000)">
                <path d="M46.6177765,14 L1.38402608,14 C0.620089829,14 0,13.371964 0,12.596629 L0,1.4052031 C0,0.630234506 0.620089829,0 1.38402608,0 L46.617416,0 C47.3820733,0 47.9996395,0.630234506 47.9996395,1.4052031 L48,12.596629 C48,13.371964 47.3820733,14 46.6177765,14 Z" id="Shape" fill="#000000"></path>
                <g id="Group" transform="translate(4.000000, 1.000000)" fill="#FFFFFF">
                    <path d="M6.69341538,4.80216774 C6.68270769,3.67931613 7.66781538,3.13304516 7.71286154,3.1076129 C7.15495385,2.34011613 6.29021538,2.23525161 5.98633846,2.22689032 C5.26006154,2.15477419 4.55556923,2.63694194 4.1856,2.63694194 C3.80824615,2.63694194 3.23852308,2.23385806 2.62449231,2.24570323 C1.83433846,2.2572 1.09513846,2.68885161 0.689723077,3.35914839 C-0.146953846,4.72587097 0.477046154,6.73432258 1.27864615,7.83905806 C1.67963077,8.38010323 2.14818462,8.98420645 2.76147692,8.96295484 C3.36147692,8.9396129 3.5856,8.60202581 4.30966154,8.60202581 C5.02707692,8.60202581 5.23753846,8.96295484 5.86301538,8.94936774 C6.50695385,8.9396129 6.91236923,8.40588387 7.29932308,7.85996129 C7.76270769,7.23983226 7.9488,6.62910968 7.95618462,6.59775484 C7.94104615,6.59287742 6.7056,6.1479871 6.69341538,4.80216774 Z" id="Shape"></path>
                    <path d="M5.51187692,1.50015484 C5.83458462,1.11936774 6.05538462,0.601316129 5.99409231,0.0756 C5.52701538,0.0951096774 4.94289231,0.38043871 4.60652308,0.752864516 C4.30892308,1.08104516 4.04307692,1.61895484 4.11175385,2.1248129 C4.63643077,2.16174194 5.17513846,1.87501935 5.51187692,1.50015484 Z" id="Shape"></path>
                </g>
                <g id="Group" transform="translate(14.000000, 6.000000)" fill="#FFFFFF">
                    <path d="M4.17779381,4.62994286 L3.3630433,4.62994286 L2.91674227,3.28971429 L1.36545155,3.28971429 L0.940317526,4.62994286 L0.147092784,4.62994286 L1.68403299,0.0672 L2.63331959,0.0672 L4.17779381,4.62994286 Z M2.78220619,2.72742857 L2.37859794,1.536 C2.33590515,1.41428571 2.25590103,1.12765714 2.13786804,0.676457143 L2.12351753,0.676457143 C2.07651959,0.870514286 2.00082062,1.15714286 1.89677938,1.536 L1.50034639,2.72742857 L2.78220619,2.72742857 L2.78220619,2.72742857 Z" id="Shape"></path>
                    <path d="M8.13028454,2.94445714 C8.13028454,3.504 7.9720701,3.94628571 7.65564124,4.27097143 C7.37221856,4.56 7.02027216,4.70434286 6.60016082,4.70434286 C6.14668454,4.70434286 5.82092784,4.54868571 5.62253196,4.23737143 L5.60818144,4.23737143 L5.60818144,5.97051429 L4.84329897,5.97051429 L4.84329897,2.42297143 C4.84329897,2.0712 4.83361237,1.71017143 4.8149567,1.33988571 L5.48763711,1.33988571 L5.5303299,1.86137143 L5.54468041,1.86137143 C5.79976082,1.46845714 6.18686598,1.27234286 6.70635464,1.27234286 C7.11247423,1.27234286 7.45150515,1.4256 7.7227299,1.73245714 C7.99467216,2.03965714 8.13028454,2.44354286 8.13028454,2.94445714 Z M7.35105155,2.9712 C7.35105155,2.65097143 7.27571134,2.38697143 7.1243134,2.1792 C6.95892371,1.96251429 6.73684948,1.85417143 6.45844948,1.85417143 C6.26974021,1.85417143 6.09825155,1.91451429 5.94505979,2.03348571 C5.79150928,2.15348571 5.69105567,2.31017143 5.64405773,2.50422857 C5.62037938,2.59474286 5.60854021,2.6688 5.60854021,2.72708571 L5.60854021,3.27565714 C5.60854021,3.51497143 5.68531546,3.71691429 5.83886598,3.88182857 C5.99241649,4.04674286 6.19188866,4.12902857 6.43728247,4.12902857 C6.72536907,4.12902857 6.94959588,4.02274286 7.10996289,3.81085714 C7.27068866,3.59862857 7.35105155,3.31885714 7.35105155,2.9712 Z" id="Shape"></path>
                    <path d="M12.0899505,2.94445714 C12.0899505,3.504 11.9317361,3.94628571 11.6149485,4.27097143 C11.3318845,4.56 10.9799381,4.70434286 10.5598268,4.70434286 C10.1063505,4.70434286 9.78059381,4.54868571 9.5825567,4.23737143 L9.56820619,4.23737143 L9.56820619,5.97051429 L8.80332371,5.97051429 L8.80332371,2.42297143 C8.80332371,2.0712 8.79363711,1.71017143 8.77498144,1.33988571 L9.44766186,1.33988571 L9.49035464,1.86137143 L9.50470515,1.86137143 C9.7594268,1.46845714 10.146532,1.27234286 10.6663794,1.27234286 C11.0721402,1.27234286 11.4111711,1.4256 11.6831134,1.73245714 C11.9539794,2.03965714 12.0899505,2.44354286 12.0899505,2.94445714 Z M11.3107175,2.9712 C11.3107175,2.65097143 11.2350186,2.38697143 11.0836206,2.1792 C10.9182309,1.96251429 10.6968742,1.85417143 10.4181155,1.85417143 C10.2290474,1.85417143 10.0579175,1.91451429 9.90436701,2.03348571 C9.75081649,2.15348571 9.65072165,2.31017143 9.60372371,2.50422857 C9.58040412,2.59474286 9.56820619,2.6688 9.56820619,2.72708571 L9.56820619,3.27565714 C9.56820619,3.51497143 9.64498144,3.71691429 9.79781443,3.88182857 C9.95136495,4.0464 10.1508371,4.12902857 10.3969485,4.12902857 C10.6850351,4.12902857 10.9092619,4.02274286 11.0696289,3.81085714 C11.2303546,3.59862857 11.3107175,3.31885714 11.3107175,2.9712 Z" id="Shape"></path>
                    <path d="M16.5170845,3.3504 C16.5170845,3.73851429 16.3760907,4.05428571 16.0930268,4.29805714 C15.7819794,4.56445714 15.3489526,4.69748571 14.7925113,4.69748571 C14.2787629,4.69748571 13.8669031,4.60285714 13.5551381,4.41325714 L13.732367,3.804 C14.0681691,3.99805714 14.4366186,4.09542857 14.8380742,4.09542857 C15.1261608,4.09542857 15.3503876,4.03302857 15.5114722,3.90891429 C15.6718392,3.7848 15.7518433,3.61817143 15.7518433,3.4104 C15.7518433,3.22525714 15.6858309,3.06925714 15.5534474,2.94274286 C15.4217814,2.81622857 15.2018598,2.69862857 14.8947588,2.58994286 C14.0588412,2.292 13.6412412,1.85554286 13.6412412,1.2816 C13.6412412,0.906514286 13.7876165,0.598971429 14.0807258,0.359657143 C14.3727588,0.12 14.7623753,0.000342857143 15.2495753,0.000342857143 C15.6840371,0.000342857143 16.0449526,0.0726857143 16.3330392,0.217028571 L16.1418186,0.812914286 C15.8727464,0.673028571 15.5685155,0.603085714 15.2280495,0.603085714 C14.9589773,0.603085714 14.7487423,0.666514286 14.5980619,0.792685714 C14.470701,0.905485714 14.4068412,1.04297143 14.4068412,1.20582857 C14.4068412,1.38617143 14.4796701,1.53531429 14.6260454,1.65257143 C14.7534062,1.76091429 14.9848082,1.87817143 15.3206103,2.00468571 C15.7313938,2.16274286 16.0331134,2.34754286 16.2272041,2.55942857 C16.4205773,2.77062857 16.5170845,3.03497143 16.5170845,3.3504 Z" id="Shape"></path>
                    <path d="M19.0460041,1.88845714 L18.2029113,1.88845714 L18.2029113,3.48582857 C18.2029113,3.89211429 18.3514392,4.09508571 18.6492124,4.09508571 C18.785901,4.09508571 18.8992701,4.08377143 18.9889608,4.06114286 L19.0101278,4.61622857 C18.8594474,4.67005714 18.6610515,4.69714286 18.415299,4.69714286 C18.1132206,4.69714286 17.8771546,4.60902857 17.7067423,4.43314286 C17.5370474,4.25691429 17.4516619,3.96137143 17.4516619,3.54617143 L17.4516619,1.88777143 L16.9493938,1.88777143 L16.9493938,1.3392 L17.4516619,1.3392 L17.4516619,0.7368 L18.2029113,0.520114286 L18.2029113,1.3392 L19.0460041,1.3392 L19.0460041,1.88845714 Z" id="Shape"></path>
                    <path d="M22.849967,2.95782857 C22.849967,3.46354286 22.6985691,3.87874286 22.3964907,4.20342857 C22.0797031,4.53771429 21.659233,4.70434286 21.1350804,4.70434286 C20.6299423,4.70434286 20.2277691,4.54422857 19.9278433,4.224 C19.6279175,3.90377143 19.4779546,3.49954286 19.4779546,3.01234286 C19.4779546,2.50251429 19.6322227,2.08491429 19.9418351,1.76022857 C20.2507299,1.4352 20.6676124,1.27268571 21.1917649,1.27268571 C21.6969031,1.27268571 22.1033814,1.4328 22.4101237,1.75337143 C22.7035918,2.06434286 22.849967,2.46582857 22.849967,2.95782857 Z M22.0563835,2.98148571 C22.0563835,2.67805714 21.9885773,2.41782857 21.8511711,2.2008 C21.6908041,1.93817143 21.4615546,1.8072 21.164499,1.8072 C20.8570392,1.8072 20.6234845,1.93851429 20.4631175,2.2008 C20.3257113,2.41817143 20.2579052,2.68251429 20.2579052,2.9952 C20.2579052,3.29862857 20.3257113,3.55885714 20.4631175,3.77554286 C20.6285072,4.03817143 20.8595505,4.16914286 21.1576825,4.16914286 C21.4497155,4.16914286 21.6789649,4.03542857 21.8443546,3.76868571 C21.9853485,3.54754286 22.0563835,3.28457143 22.0563835,2.98148571 Z" id="Shape"></path>
                    <path d="M25.3361938,1.98274286 C25.2604948,1.96937143 25.1797732,1.96251429 25.0951052,1.96251429 C24.826033,1.96251429 24.6179505,2.05954286 24.4715753,2.25394286 C24.3442144,2.42537143 24.2803546,2.64205714 24.2803546,2.90365714 L24.2803546,4.62994286 L23.5158309,4.62994286 L23.5230062,2.376 C23.5230062,1.9968 23.5133196,1.65154286 23.4943052,1.34022857 L24.1605278,1.34022857 L24.1885113,1.96971429 L24.2096784,1.96971429 C24.2904,1.75337143 24.4177608,1.5792 24.5921196,1.44857143 C24.762532,1.33097143 24.9465773,1.27234286 25.1449732,1.27234286 C25.2156495,1.27234286 25.2795093,1.27714286 25.3361938,1.28571429 L25.3361938,1.98274286 Z" id="Shape"></path>
                    <path d="M28.7569979,2.82925714 C28.7569979,2.96022857 28.7480289,3.07062857 28.7290144,3.1608 L26.434367,3.1608 C26.4433361,3.48582857 26.5541938,3.7344 26.767299,3.90582857 C26.9606722,4.05908571 27.2107299,4.13588571 27.5178309,4.13588571 C27.8575794,4.13588571 28.1675505,4.08411429 28.4463093,3.98022857 L28.5661361,4.48765714 C28.2403794,4.62342857 27.8557856,4.69097143 27.4119959,4.69097143 C26.8781567,4.69097143 26.4591216,4.5408 26.1541732,4.2408 C25.8499423,3.9408 25.697468,3.53794286 25.697468,3.03257143 C25.697468,2.53645714 25.8391794,2.12331429 26.1229608,1.79382857 C26.4200165,1.44205714 26.8214722,1.26617143 27.3266103,1.26617143 C27.8227794,1.26617143 28.1984041,1.44205714 28.4534845,1.79382857 C28.655468,2.07325714 28.7569979,2.41885714 28.7569979,2.82925714 Z M28.027633,2.63965714 C28.0326557,2.42297143 27.9827876,2.23577143 27.8791052,2.07771429 C27.7467216,1.8744 27.5433031,1.77291429 27.269567,1.77291429 C27.0195093,1.77291429 26.8160907,1.872 26.6607464,2.07085714 C26.5333856,2.22891429 26.4576866,2.41851429 26.434367,2.63931429 L28.027633,2.63931429 L28.027633,2.63965714 Z" id="Shape"></path>
                </g>
                <g id="Group" transform="translate(15.000000, 1.000000)" fill="#FFFFFF">
                    <path d="M2.16255319,1.44324 C2.16255319,1.86696 2.03637447,2.18592 1.78437447,2.40012 C1.5509617,2.59776 1.21925106,2.69676 0.7896,2.69676 C0.576561702,2.69676 0.39426383,2.6874 0.241634043,2.66868 L0.241634043,0.35352 C0.440731915,0.32112 0.6552,0.30456 0.886825532,0.30456 C1.29610213,0.30456 1.60457872,0.3942 1.81261277,0.57348 C2.04566809,0.77616 2.16255319,1.06596 2.16255319,1.44324 Z M1.76757447,1.45368 C1.76757447,1.179 1.69537021,0.9684 1.5509617,0.82152 C1.40655319,0.675 1.19565957,0.60156 0.917923404,0.60156 C0.799965957,0.60156 0.699523404,0.60948 0.616238298,0.62604 L0.616238298,2.38608 C0.662348936,2.39328 0.746706383,2.39652 0.869310638,2.39652 C1.15598298,2.39652 1.37724255,2.31624 1.53308936,2.15568 C1.68893617,1.99512 1.76757447,1.76112 1.76757447,1.45368 Z" id="Shape"></path>
                    <path d="M4.25683404,1.81332 C4.25683404,2.07432 4.18284255,2.28816 4.03485957,2.45592 C3.87972766,2.62836 3.67419574,2.7144 3.41754894,2.7144 C3.17019574,2.7144 2.97324255,2.63196 2.82633191,2.46636 C2.67977872,2.30112 2.60650213,2.09268 2.60650213,1.8414 C2.60650213,1.5786 2.6819234,1.36296 2.83348085,1.19556 C2.9850383,1.02816 3.18878298,0.94428 3.44542979,0.94428 C3.69278298,0.94428 3.8915234,1.02672 4.04200851,1.19196 C4.18498723,1.35252 4.25683404,1.55988 4.25683404,1.81332 Z M3.86828936,1.82556 C3.86828936,1.66896 3.83468936,1.53468 3.76784681,1.42272 C3.68920851,1.28736 3.57732766,1.21968 3.43184681,1.21968 C3.2813617,1.21968 3.16697872,1.28736 3.08834043,1.42272 C3.02114043,1.53468 2.98789787,1.67112 2.98789787,1.8324 C2.98789787,1.989 3.02149787,2.12328 3.08834043,2.23524 C3.16948085,2.3706 3.28243404,2.43828 3.42827234,2.43828 C3.57125106,2.43828 3.68348936,2.36952 3.76427234,2.23164 C3.83361702,2.11752 3.86828936,1.98216 3.86828936,1.82556 Z" id="Shape"></path>
                    <path d="M7.06493617,0.97884 L6.53770213,2.67588 L6.19455319,2.67588 L5.97615319,1.93896 C5.92074894,1.755 5.87571064,1.57212 5.84068085,1.39068 L5.83388936,1.39068 C5.8013617,1.57716 5.7563234,1.75968 5.69841702,1.93896 L5.46643404,2.67588 L5.11935319,2.67588 L4.62357447,0.97884 L5.00854468,0.97884 L5.19906383,1.7856 C5.24517447,1.9764 5.28306383,2.1582 5.31344681,2.33028 L5.3202383,2.33028 C5.34811915,2.18844 5.39422979,2.00772 5.45928511,1.7892 L5.69841702,0.9792 L6.0036766,0.9792 L6.2328,1.77192 C6.28820426,1.96524 6.33324255,2.15136 6.36791489,2.33064 L6.37828085,2.33064 C6.40365957,2.15604 6.44190638,1.96992 6.49266383,1.77192 L6.6971234,0.9792 L7.06493617,0.9792 L7.06493617,0.97884 Z" id="Shape"></path>
                    <path d="M9.00694468,2.67588 L8.63234043,2.67588 L8.63234043,1.70388 C8.63234043,1.40436 8.51938723,1.2546 8.29276596,1.2546 C8.1816,1.2546 8.09188085,1.29564 8.02217872,1.37808 C7.95319149,1.46052 7.9181617,1.55772 7.9181617,1.66896 L7.9181617,2.67552 L7.54355745,2.67552 L7.54355745,1.46376 C7.54355745,1.31472 7.53891064,1.15308 7.52997447,0.97812 L7.85918298,0.97812 L7.87669787,1.24344 L7.88706383,1.24344 C7.93067234,1.161 7.99572766,1.09296 8.08115745,1.0386 C8.18267234,0.97524 8.29634043,0.9432 8.42073191,0.9432 C8.57800851,0.9432 8.70883404,0.99432 8.81285106,1.09692 C8.94224681,1.22256 9.00694468,1.41012 9.00694468,1.65924 L9.00694468,2.67588 L9.00694468,2.67588 Z" id="Shape"></path>
                    <polygon id="Shape" points="10.039966 2.67588 9.66571915 2.67588 9.66571915 0.20016 10.039966 0.20016"></polygon>
                    <path d="M12.2454128,1.81332 C12.2454128,2.07432 12.1714213,2.28816 12.0234383,2.45592 C11.8683064,2.62836 11.662417,2.7144 11.4061277,2.7144 C11.158417,2.7144 10.9614638,2.63196 10.8149106,2.46636 C10.6683574,2.30112 10.5950809,2.09268 10.5950809,1.8414 C10.5950809,1.5786 10.6705021,1.36296 10.8220596,1.19556 C10.973617,1.02816 11.1773617,0.94428 11.4336511,0.94428 C11.6813617,0.94428 11.8797447,1.02672 12.0305872,1.19196 C12.173566,1.35252 12.2454128,1.55988 12.2454128,1.81332 Z M11.8565106,1.82556 C11.8565106,1.66896 11.8229106,1.53468 11.7560681,1.42272 C11.6777872,1.28736 11.5655489,1.21968 11.4204255,1.21968 C11.269583,1.21968 11.1552,1.28736 11.0769191,1.42272 C11.0097191,1.53468 10.9764766,1.67112 10.9764766,1.8324 C10.9764766,1.989 11.0100766,2.12328 11.0769191,2.23524 C11.1580596,2.3706 11.2710128,2.43828 11.4168511,2.43828 C11.5598298,2.43828 11.6717106,2.36952 11.7524936,2.23164 C11.8221957,2.11752 11.8565106,1.98216 11.8565106,1.82556 Z" id="Shape"></path>
                    <path d="M14.058383,2.67588 L13.7220255,2.67588 L13.6941447,2.4804 L13.6837787,2.4804 C13.5686809,2.63628 13.4046128,2.7144 13.1915745,2.7144 C13.0325106,2.7144 12.9038298,2.66292 12.8069617,2.56068 C12.7190298,2.4678 12.6750638,2.35224 12.6750638,2.21508 C12.6750638,2.00772 12.7608511,1.84968 12.9334979,1.74024 C13.1057872,1.6308 13.3481362,1.57716 13.6601872,1.57968 L13.6601872,1.548 C13.6601872,1.32444 13.5436596,1.21284 13.3102468,1.21284 C13.144034,1.21284 12.9974809,1.25496 12.8709447,1.33848 L12.7948085,1.0908 C12.9513702,0.99324 13.1447489,0.94428 13.3728,0.94428 C13.8131745,0.94428 14.0340766,1.17828 14.0340766,1.64628 L14.0340766,2.27124 C14.0340766,2.4408 14.0422979,2.5758 14.058383,2.67588 Z M13.6694809,2.09268 L13.6694809,1.83096 C13.2562723,1.82376 13.0496681,1.93788 13.0496681,2.17296 C13.0496681,2.26152 13.0732596,2.32776 13.1215149,2.37204 C13.1697702,2.41632 13.2312511,2.43828 13.3045277,2.43828 C13.3867404,2.43828 13.4635915,2.412 13.5336511,2.3598 C13.6040681,2.30724 13.6473191,2.24064 13.6634043,2.15892 C13.6673362,2.14056 13.6694809,2.11824 13.6694809,2.09268 Z" id="Shape"></path>
                    <path d="M16.1869787,2.67588 L15.8545532,2.67588 L15.8370383,2.40336 L15.8266723,2.40336 C15.7205106,2.61072 15.5396426,2.7144 15.2854979,2.7144 C15.0824681,2.7144 14.9133957,2.63412 14.7793532,2.47356 C14.6453106,2.313 14.5784681,2.10456 14.5784681,1.8486 C14.5784681,1.57392 14.6510298,1.35144 14.7968681,1.18152 C14.9380596,1.02312 15.1110638,0.94392 15.3169532,0.94392 C15.543217,0.94392 15.701566,1.0206 15.7916426,1.17432 L15.7987915,1.17432 L15.7987915,0.20016 L16.1737532,0.20016 L16.1737532,2.21868 C16.1737532,2.38392 16.1780426,2.5362 16.1869787,2.67588 Z M15.7987915,1.9602 L15.7987915,1.67724 C15.7987915,1.62828 15.795217,1.58868 15.7884255,1.55844 C15.7673362,1.46772 15.7219404,1.3914 15.6529532,1.32984 C15.5832511,1.26828 15.4992511,1.23732 15.402383,1.23732 C15.2626213,1.23732 15.1532426,1.29312 15.072817,1.40508 C14.9931064,1.51704 14.9527149,1.65996 14.9527149,1.83456 C14.9527149,2.00232 14.9909617,2.1384 15.0678128,2.24316 C15.1489532,2.35476 15.2583319,2.41056 15.395234,2.41056 C15.5181957,2.41056 15.6164936,2.36412 15.6912,2.27088 C15.7634043,2.18484 15.7987915,2.08116 15.7987915,1.9602 Z" id="Shape"></path>
                    <path d="M19.3907745,1.81332 C19.3907745,2.07432 19.316783,2.28816 19.1688,2.45592 C19.0136681,2.62836 18.8084936,2.7144 18.5514894,2.7144 C18.3044936,2.7144 18.1075404,2.63196 17.9602723,2.46636 C17.8137191,2.30112 17.7404426,2.09268 17.7404426,1.8414 C17.7404426,1.5786 17.8158638,1.36296 17.9674213,1.19556 C18.1189787,1.02816 18.3227234,0.94428 18.5797277,0.94428 C18.8267234,0.94428 19.0258213,1.02672 19.1759489,1.19196 C19.3189277,1.35252 19.3907745,1.55988 19.3907745,1.81332 Z M19.0025872,1.82556 C19.0025872,1.66896 18.9689872,1.53468 18.9021447,1.42272 C18.8231489,1.28736 18.7116255,1.21968 18.5657872,1.21968 C18.4156596,1.21968 18.3012766,1.28736 18.2222809,1.42272 C18.1550809,1.53468 18.1218383,1.67112 18.1218383,1.8324 C18.1218383,1.989 18.1554383,2.12328 18.2222809,2.23524 C18.3034213,2.3706 18.4163745,2.43828 18.5622128,2.43828 C18.7051915,2.43828 18.8177872,2.36952 18.8985702,2.23164 C18.9675574,2.11752 19.0025872,1.98216 19.0025872,1.82556 Z" id="Shape"></path>
                    <path d="M21.4049872,2.67588 L21.0307404,2.67588 L21.0307404,1.70388 C21.0307404,1.40436 20.9177872,1.2546 20.6908085,1.2546 C20.5796426,1.2546 20.4899234,1.29564 20.4205787,1.37808 C20.351234,1.46052 20.3165617,1.55772 20.3165617,1.66896 L20.3165617,2.67552 L19.9416,2.67552 L19.9416,1.46376 C19.9416,1.31472 19.9373106,1.15308 19.9283745,0.97812 L20.2572255,0.97812 L20.2747404,1.24344 L20.2851064,1.24344 C20.3290723,1.161 20.3941277,1.09296 20.4792,1.0386 C20.5810723,0.97524 20.694383,0.9432 20.8191319,0.9432 C20.9760511,0.9432 21.1068766,0.99432 21.2108936,1.09692 C21.3406468,1.22256 21.4049872,1.41012 21.4049872,1.65924 L21.4049872,2.67588 L21.4049872,2.67588 Z" id="Shape"></path>
                    <path d="M23.9260596,1.26144 L23.513566,1.26144 L23.513566,2.08584 C23.513566,2.29536 23.5868426,2.40012 23.731966,2.40012 C23.799166,2.40012 23.8549277,2.39436 23.8988936,2.38248 L23.9085447,2.66868 C23.8345532,2.69676 23.7373277,2.7108 23.617583,2.7108 C23.4696,2.7108 23.3545021,2.66544 23.271217,2.57472 C23.1875745,2.484 23.1461106,2.33136 23.1461106,2.11716 L23.1461106,1.26144 L22.8998298,1.26144 L22.8998298,0.97884 L23.1461106,0.97884 L23.1461106,0.6678 L23.5132085,0.5562 L23.5132085,0.97848 L23.9257021,0.97848 L23.9257021,1.26144 L23.9260596,1.26144 Z" id="Shape"></path>
                    <path d="M25.9091745,2.67588 L25.5342128,2.67588 L25.5342128,1.71108 C25.5342128,1.40688 25.4212596,1.2546 25.1949957,1.2546 C25.0212766,1.2546 24.9026043,1.3428 24.8375489,1.5192 C24.8264681,1.55628 24.820034,1.60164 24.820034,1.65492 L24.820034,2.67552 L24.4457872,2.67552 L24.4457872,0.20016 L24.820034,0.20016 L24.820034,1.22292 L24.827183,1.22292 C24.9451404,1.0368 25.1142128,0.94392 25.3333277,0.94392 C25.4884596,0.94392 25.616783,0.99504 25.7186553,1.09764 C25.8455489,1.22544 25.9091745,1.41552 25.9091745,1.6668 L25.9091745,2.67588 L25.9091745,2.67588 Z" id="Shape"></path>
                    <path d="M27.9548426,1.74708 C27.9548426,1.81476 27.9498383,1.87164 27.9409021,1.91808 L26.8174468,1.91808 C26.8224511,2.08584 26.8760681,2.21364 26.9800851,2.3022 C27.075166,2.3814 27.1977702,2.421 27.3478979,2.421 C27.5141106,2.421 27.6656681,2.39436 27.8022128,2.34072 L27.860834,2.6028 C27.7010553,2.67264 27.5130383,2.70756 27.2953532,2.70756 C27.034417,2.70756 26.8288851,2.63016 26.6801872,2.47536 C26.5307745,2.32056 26.456783,2.11284 26.456783,1.8522 C26.456783,1.59624 26.5257702,1.38312 26.664817,1.2132 C26.8099404,1.03176 27.0061787,0.94104 27.2538894,0.94104 C27.4962383,0.94104 27.6803234,1.03176 27.8047149,1.2132 C27.9051574,1.3572 27.9548426,1.5354 27.9548426,1.74708 Z M27.5973957,1.64952 C27.6002553,1.53756 27.5755915,1.44108 27.524834,1.35972 C27.4597787,1.25496 27.360766,1.2024 27.2267234,1.2024 C27.1044766,1.2024 27.0047489,1.25352 26.9286128,1.35612 C26.866417,1.43784 26.8296,1.5354 26.8174468,1.64952 L27.5973957,1.64952 Z" id="Shape"></path>
                </g>
            </g>
        </g>
    </g>
</svg>