<?xml version="1.0" encoding="UTF-8"?>
<svg width="4064px" height="3264px" viewBox="0 0 4064 3264" version="1.1" xmlns="http://www.w3.org/2000/svg" xmlns:xlink="http://www.w3.org/1999/xlink">
    <!-- Generator: Sketch 49.3 (51167) - http://www.bohemiancoding.com/sketch -->
    <title>M Copy</title>
    <desc>Created with Sketch.</desc>
    <defs></defs>
    <g id="PANEL-DE-PERFIL-DE-USUARIO" stroke="none" stroke-width="1" fill="none" fill-rule="evenodd">
        <g id="Group-19" transform="translate(-301.000000, -579.000000)" fill="#5BC500">
            <path d="M1173.77484,1135.92965 C997.306622,1138.74268 671.556106,1225.70648 522.788694,1832.97802 C457.947522,2097.57441 432.924115,2373.38862 488.394382,2701.68986 C539.539616,3004.5023 630.228011,3265.83969 691.29336,3409.85313 C712.369316,3459.49282 744.978693,3511.22514 770.173727,3543.09472 C842.669522,3634.68973 963.358544,3628.82354 1014.09187,3603.88362 C1069.35618,3576.67956 1132.89298,3511.01931 1109.89479,3361.07106 C1098.77327,3288.61837 1066.71311,3182.68376 1048.65781,3123.74734 C993.324845,2942.95868 919.593327,2724.8459 913.174428,2569.47742 C904.593013,2361.65622 986.56269,2334.45216 1041.03751,2322.47962 C1132.58405,2302.34244 1209.37055,2402.82252 1282.31258,2528.75709 C1369.32813,2679.04839 1518.50745,2945.39435 1640.15759,3148.82448 C1750.03403,3332.46048 1952.72705,3529.06387 2278.27161,3515.5476 C2610.16642,3501.8255 2854.8054,3375.27343 2980.84923,2976.85226 C3075.14182,2678.77395 3139.43378,2456.06427 3242.85699,2227.96866 C3361.7954,1965.63642 3520.44861,1825.25933 3654.0784,1868.10659 C3778.13134,1907.90068 3809.05876,2029.10113 3810.56909,2207.21399 C3811.90779,2364.778 3793.64654,2538.46548 3779.47004,2666.08101 C3774.32119,2712.39309 3764.98461,2805.53185 3768.82908,2857.29847 C3776.31208,2958.94492 3820.3519,3060.52277 3934.89663,3076.74915 C4056.95868,3094.0733 4154.85546,2996.61209 4193.95239,2878.80786 C4209.39893,2832.32425 4222.54566,2761.24377 4229.65107,2710.84936 C4265.52139,2456.23579 4274.82364,2285.12121 4258.65626,2024.60714 C4239.70849,1719.94222 4180.08482,1442.17261 4076.00942,1201.76142 C3976.465,971.847635 3816.54175,824.506588 3611.44593,811.470593 C3384.45034,797.096693 3123.91858,947.628129 2987.26813,1239.66872 C2861.29295,1508.89632 2760.51281,1785.25941 2699.37881,1926.28829 C2637.35234,2069.34119 2546.25204,2157.47137 2406.1347,2172.22263 C2234.81533,2190.23289 2087.24931,2065.94497 1979.12348,1888.79266 C1884.86522,1734.31612 1698.0993,1440.21721 1598.14298,1341.38379 C1504.2623,1248.58809 1397.02894,1132.3962 1173.77484,1135.92965 L1384.19323,1633.50368" id="M-Copy" transform="translate(2362.057137, 2215.145951) rotate(33.000000) translate(-2362.057137, -2215.145951) "></path>
        </g>
    </g>
</svg>