<?xml version="1.0" encoding="UTF-8"?>
<svg width="323px" height="81px" viewBox="0 0 323 81" version="1.1" xmlns="http://www.w3.org/2000/svg" xmlns:xlink="http://www.w3.org/1999/xlink">
    <!-- Generator: Sketch 51.3 (57544) - http://www.bohemiancoding.com/sketch -->
    <title>Rectangle</title>
    <desc>Created with Sketch.</desc>
    <defs></defs>
    <g id="Page-1" stroke="none" stroke-width="1" fill="none" fill-rule="evenodd">
        <path d="M0,16.551368 C47.5889938,45.6219332 101.422327,58.6565847 161.5,55.6553222 C221.577673,52.6540597 275.411006,34.1022857 323,0 L323,81 L0,81 L0,16.551368 Z" id="Rectangle" fill="#FFFFFF"></path>
    </g>
</svg>