<?xml version="1.0" encoding="UTF-8"?>
<svg width="40px" height="40px" viewBox="0 0 40 40" version="1.1" xmlns="http://www.w3.org/2000/svg" xmlns:xlink="http://www.w3.org/1999/xlink">
    <!-- Generator: Sketch 49.3 (51167) - http://www.bohemiancoding.com/sketch -->
    <title>Fill 1</title>
    <desc>Created with Sketch.</desc>
    <defs></defs>
    <g id="PLANES" stroke="none" stroke-width="1" fill="none" fill-rule="evenodd">
        <g id="D-1---PLANES" transform="translate(-565.000000, -2059.000000)" fill="#7ED321">
            <g id="Group-15" transform="translate(0.000000, 1756.000000)">
                <g id="Group-3" transform="translate(565.000000, 303.000000)">
                    <path d="M33.504034,16.8443685 C32.9673921,17.7603123 31.8730359,18.0693731 30.8194196,17.4849672 C26.2340812,14.9422398 21.2329156,14.1513251 16.1081257,14.2159469 C13.4909426,14.2482578 10.87095,14.7891142 8.27062482,15.2077511 C6.94025857,15.421284 5.88664222,15.0223146 5.58179589,13.915315 C5.25868688,12.7450985 5.88383258,11.7518895 7.21841329,11.3430863 C10.2275416,10.4187136 13.3321978,10.2388964 16.1811764,10.1672505 C21.3382772,10.2388964 26.1048376,10.9384976 30.6129108,12.9403687 C31.336394,13.2606681 32.0430194,13.6287314 32.7201435,14.0361297 C33.7681405,14.6640851 34.080011,15.8609932 33.504034,16.8443685 M30.5918384,23.3177874 C30.0678399,23.9148366 29.389311,24.0272224 28.6728519,23.6844458 C27.7737659,23.2545704 26.9168246,22.729167 25.9952615,22.3596989 C20.7271797,20.2412276 15.3242351,19.7846605 9.78923719,21.1248605 C9.50405836,21.1951016 9.223094,21.2822006 8.93510553,21.3397983 C7.96999295,21.5322588 7.17345899,21.0883352 6.92761518,20.2257746 C6.66350868,19.3028066 7.06669254,18.3714098 8.02337618,18.1339949 C9.72461539,17.7125484 11.453951,17.3866297 13.1846915,17.1042605 C14.1062546,16.9525398 15.0559141,16.9764217 15.9184747,16.9258482 C20.8704716,17.0747593 25.5386944,18.0202043 29.8079479,20.5011196 C30.1549389,20.7020092 30.5173829,20.9604964 30.7309158,21.2836054 C31.1790539,21.9635391 31.1355045,22.6968561 30.5918384,23.3177874 M28.3497428,28.4510062 C27.9648217,29.0986291 27.2610059,29.1969666 26.4223273,28.8555949 C24.5581288,28.0941815 22.7234315,27.1669991 20.7819678,26.7076224 C17.1350504,25.8464666 13.4431787,26.1611467 9.78502272,26.8944637 C9.32283635,26.9885867 8.70611958,27.0461844 8.3661527,26.8157936 C8.00932797,26.5741643 7.74662629,25.9757102 7.71993467,25.5163335 C7.67779002,24.8139226 8.22848017,24.4065243 8.89015124,24.3011626 C11.2853724,23.9162414 13.6862129,23.5678456 16.0842437,23.2054016 C19.8772626,23.399267 23.4539389,24.1592756 26.8016292,25.9054691 C27.1387864,26.0810718 27.4745389,26.2651035 27.7920286,26.4758268 C28.5351793,26.9745385 28.7515219,27.7710725 28.3497428,28.4510062 M19.6833971,0.000555084057 C8.75388352,-0.0120883122 0.0748944268,8.70904544 0.000438871236,19.6217012 C-0.0768263279,30.9333263 9.57289463,39.6305781 19.6328236,39.2007027 C29.6787043,39.6333878 39.2427311,30.9698517 39.2876854,19.7144194 C39.3284252,9.26816451 30.8840414,0.0117936585 19.6833971,0.000555084057" id="Fill-1"></path>
                </g>
            </g>
        </g>
    </g>
</svg>