<?xml version="1.0" encoding="UTF-8"?>
<svg width="114px" height="35px" viewBox="0 0 114 35" version="1.1" xmlns="http://www.w3.org/2000/svg" xmlns:xlink="http://www.w3.org/1999/xlink">
    <!-- Generator: Sketch 49.3 (51167) - http://www.bohemiancoding.com/sketch -->
    <title>Group 4</title>
    <desc>Created with Sketch.</desc>
    <defs></defs>
    <g id="CheckOut-Terminal-+-SIM" stroke="none" stroke-width="1" fill="none" fill-rule="evenodd">
        <g id="D---2.3-Elige-tu-plan" transform="translate(-278.000000, -716.000000)">
            <g id="Group-15" transform="translate(258.000000, 595.000000)">
                <g id="Group-11" transform="translate(0.000000, 112.000000)">
                    <g id="Group-4" transform="translate(20.000000, 9.000000)">
                        <text id="Cloud" font-family="Telefonica-Regular, Telefonica" font-size="24" font-weight="normal" fill="#50535A">
                            <tspan x="58" y="27">Cloud</tspan>
                        </text>
                        <path d="M52,24.7864841 C52,30.4272032 47.4286299,35 41.7917915,35 L10.206395,35 C4.56967755,35 0,30.4272032 0,24.7864841 C0,19.6920322 3.72678132,15.4717279 8.60257093,14.6995102 C8.54079239,14.3419753 8.50669934,13.9741153 8.50669934,13.5954501 C8.50669934,10.0214219 11.4024324,7.12452491 14.9754323,7.12452491 C16.5688592,7.12452491 18.0290572,7.70104691 19.1555786,8.66031613 C21.1639252,4.13230129 23.7385549,0 30.9614454,0 C39.7211828,0 43.8729183,6.75966644 43.8729183,13.8925955 C43.8729183,14.1909414 43.860345,14.486526 43.8401551,14.778989 C48.4961534,15.7282934 52,19.8477484 52,24.7864841 Z" id="MobileMe" fill="#00A9E0" fill-rule="nonzero"></path>
                    </g>
                </g>
            </g>
        </g>
    </g>
</svg>