<?xml version="1.0" encoding="UTF-8"?>
<svg width="642px" height="614px" viewBox="0 0 642 614" version="1.1" xmlns="http://www.w3.org/2000/svg" xmlns:xlink="http://www.w3.org/1999/xlink">
    <!-- Generator: Sketch 49.3 (51167) - http://www.bohemiancoding.com/sketch -->
    <title>Fill 2</title>
    <desc>Created with Sketch.</desc>
    <defs></defs>
    <g id="Malla-SIM-Desktop" stroke="none" stroke-width="1" fill="none" fill-rule="evenodd">
        <path d="M350.149177,38.2035155 C332.320114,15.4441965 288.7238,-18.4636507 194.693802,22.2610804 C153.722419,40.0058322 115.226066,64.0547247 77.84308,103.812606 C43.3617162,140.485211 18.2028763,178.205787 5.44141707,200.445529 C1.04363883,208.109784 -2.48730671,217.493911 -4.15229468,223.939354 C-8.94056587,242.475705 3.7687249,257.651009 12.0454585,261.80013 C21.0708203,266.324218 35.9335454,268.111986 53.2400432,250.257455 C61.599762,241.633404 72.2654583,226.952988 78.1754612,218.759898 C96.301686,193.627984 117.490881,162.401347 137.14628,146.173663 C163.438518,124.468267 175.102679,132.476408 182.056931,138.400731 C193.747506,148.358884 188.226015,168.334047 178.995502,190.326455 C167.979374,216.573574 147.961438,262.429485 133.439238,298.459508 C120.328228,330.987401 114.715167,376.92267 148.692456,418.083652 C183.334288,460.050342 224.072784,479.449495 288.574779,456.44152 C336.835877,439.226265 372.284228,425.559211 412.309975,416.46893 C458.336635,406.015449 492.372916,412.822854 499.998535,434.509512 C507.078476,454.644935 494.317236,470.688992 471.201551,488.528313 C450.755481,504.307182 426.266466,519.130002 408.196592,529.916348 C401.640317,533.829818 388.55286,541.840163 382.172901,547.462483 C369.637285,558.51027 360.734089,574.320662 369.948974,590.882533 C379.767209,608.530071 402.187095,611.657232 421.440775,605.093854 C429.034035,602.505669 439.617187,597.183588 446.90382,593.117573 C483.703048,572.581832 506.974799,556.845729 539.394078,528.93032 C577.304692,496.287357 607.682798,460.987211 628.776681,423.590462 C648.950243,387.824306 652.365845,352.353319 633.769004,324.29198 C613.183598,293.228909 567.741357,274.133963 516.075002,285.218564 C468.45049,295.435733 422.387511,309.654108 397.916106,315.642358 C373.09449,321.71658 352.570277,318.553267 336.779966,301.724002 C317.471037,281.143732 319.097944,249.569903 331.536047,217.907677 C342.381801,190.301325 362.302004,136.790858 365.316328,113.955047 C368.146852,92.5077862 372.706638,66.9984793 350.149177,38.2035155 L562.305308,296.530456" id="Fill-2" fill="#00A9E0" transform="translate(320.390928, 305.746690) rotate(4.000000) translate(-320.390928, -305.746690) "></path>
    </g>
</svg>