<?xml version="1.0" encoding="UTF-8"?>
<svg width="2880px" height="590px" viewBox="0 0 2880 590" version="1.1" xmlns="http://www.w3.org/2000/svg" xmlns:xlink="http://www.w3.org/1999/xlink">
    <!-- Generator: Sketch 51.3 (57544) - http://www.bohemiancoding.com/sketch -->
    <title>mask</title>
    <desc>Created with Sketch.</desc>
    <defs></defs>
    <g id="Page-1" stroke="none" stroke-width="1" fill="none" fill-rule="evenodd">
        <g id="background" transform="translate(0.000000, -372.000000)" fill="#FFFFFF">
            <path d="M0,503.090576 C424.76492,735.09241 905.26492,839.117323 1441.5,815.165316 C1977.73508,791.213308 2458.23508,643.158203 2883,371 L2883,961.56766 L0,961.56766 L0,503.090576 Z" id="mask"></path>
        </g>
    </g>
</svg>