<?xml version="1.0" encoding="UTF-8"?>
<svg width="40px" height="31px" viewBox="0 0 40 31" version="1.1" xmlns="http://www.w3.org/2000/svg" xmlns:xlink="http://www.w3.org/1999/xlink">
    <!-- Generator: Sketch 54.1 (76490) - https://sketchapp.com -->
    <title>Visa</title>
    <desc>Created with Sketch.</desc>
    <defs>
        <path d="M6.18057702,0.0625409455 C5.42230765,0.0625409455 4.98160775,0.35001966 4.68759367,1.0365725 L4.68759367,1.0365725 C3.32994674,4.20631532 1.97215705,7.37605814 0.615081157,10.5460106 L0.615081157,10.5460106 C0.425281831,10.989108 0.238409083,11.4333234 0.0410434798,11.898642 L0.0410434798,11.898642 C1.12409169,11.898642 2.17673203,11.900948 3.22930099,11.8919337 L3.22930099,11.8919337 C3.28469184,11.8915144 3.3657081,11.8049354 3.39012005,11.7419053 L3.39012005,11.7419053 C3.57014032,11.2772855 3.74609194,10.8107789 3.906911,10.3395207 L3.906911,10.3395207 C3.96073149,10.1818756 4.03096938,10.1247152 4.20770617,10.1261128 L4.20770617,10.1261128 C5.3754824,10.1351969 6.54354414,10.1388306 7.71117761,10.1240863 L7.71117761,10.1240863 C7.94516113,10.1211514 8.01218692,10.2006728 8.0496614,10.4059748 L8.0496614,10.4059748 C8.13988568,10.9005025 8.254165,11.3909073 8.36066391,11.8921433 L8.36066391,11.8921433 L11.2727523,11.8921433 L11.2727523,11.8079401 C11.1786735,11.4084467 11.0775281,11.010281 10.9917294,10.6090407 L10.9917294,10.6090407 C10.3222567,7.47682244 9.65606751,4.3439054 8.98816518,1.21133775 L8.98816518,1.21133775 C8.9068634,0.829733169 8.8217071,0.448897244 8.7372646,0.0625409455 L8.7372646,0.0625409455 C8.15951517,0.0625409455 7.59133065,0.0624710673 7.0264296,0.0624710673 L7.0264296,0.0624710673 C6.74397908,0.0624710673 6.46224236,0.0625409455 6.18057702,0.0625409455 M6.50121582,3.35044772 C6.51370732,3.35282358 6.52627019,3.35519944 6.53876168,3.35757529 L6.53876168,3.35757529 C6.84491035,4.79468935 7.1511304,6.23173354 7.46149049,7.6883436 L7.46149049,7.6883436 L4.89480971,7.6883436 C5.43422811,6.23173354 5.96772196,4.79105569 6.50121582,3.35044772" id="path-1"></path>
        <linearGradient x1="-197.73204%" y1="51.8196562%" x2="93.3944866%" y2="49.8436978%" id="linearGradient-3">
            <stop stop-color="#262860" offset="0%"></stop>
            <stop stop-color="#3D439A" offset="100%"></stop>
        </linearGradient>
        <path d="M5.87357946,0.0612541806 C5.81371816,0.0754540134 5.75463796,0.0958488712 5.69385354,0.103018395 L5.69385354,0.103018395 C4.60015988,0.2329051 3.57349952,0.542099498 2.70888363,1.23872659 L2.70888363,1.23872659 C1.71502981,2.03941618 1.2346482,3.06987855 1.37389851,4.3389538 L1.37389851,4.3389538 C1.46692141,5.18655853 1.95738642,5.82422847 2.63460733,6.30249833 L2.63460733,6.30249833 C3.16299159,6.67559197 3.75606583,6.95972784 4.31434525,7.29314548 L4.31434525,7.29314548 C4.67187982,7.50656062 5.04894211,7.70299164 5.36266361,7.96889047 L5.36266361,7.96889047 C5.8399918,8.3735161 5.78971683,9.02086141 5.26552214,9.36534657 L5.26552214,9.36534657 C5.02387563,9.52412019 4.73330334,9.64746384 4.44826982,9.69973871 L4.44826982,9.69973871 C3.35280091,9.90090301 2.29589036,9.71602676 1.27235443,9.31181877 L1.27235443,9.31181877 C1.05818873,9.22717663 0.848496656,9.13132776 0.625241699,9.03575732 L0.625241699,9.03575732 C0.434722281,9.91036957 0.249386581,10.7611762 0.0642639111,11.6106603 L0.0642639111,11.6106603 C0.103461346,11.6346051 0.125758438,11.652703 0.151250973,11.6629352 L0.151250973,11.6629352 C0.236817838,11.6973211 0.322384703,11.7325422 0.410223884,11.7608723 L0.410223884,11.7608723 C1.42183016,12.0866332 2.45353222,12.2506273 3.50241866,12.2508361 L3.50241866,12.2508361 L3.5084545,12.2508361 C3.81592713,12.2506969 4.12489098,12.2365667 4.43520401,12.2082366 L4.43520401,12.2082366 C5.41719917,12.1186524 6.35949984,11.876768 7.1921613,11.3352253 L7.1921613,11.3352253 C8.51649494,10.4740472 9.09955679,9.25682922 8.90300153,7.7114837 L8.90300153,7.7114837 C8.79194213,6.83777634 8.26284776,6.19147513 7.53734016,5.7214885 L7.53734016,5.7214885 C6.92132974,5.32236183 6.25582546,4.99743625 5.62192056,4.62378574 L5.62192056,4.62378574 C5.3431359,4.45937395 5.06413822,4.28104076 4.82874058,4.06372763 L4.82874058,4.06372763 C4.48732523,3.74854703 4.49208289,3.31642663 4.84961747,3.01621154 L4.84961747,3.01621154 C5.05788935,2.84114987 5.3258095,2.70235347 5.59053421,2.63003177 L5.59053421,2.63003177 C6.24162349,2.45211622 6.90861898,2.50585284 7.55942422,2.64673746 L7.55942422,2.64673746 C8.03533222,2.74961664 8.49824541,2.90999122 8.98260357,3.04913566 L8.98260357,3.04913566 C9.15934708,2.23918834 9.33992512,1.41135201 9.52497678,0.563051212 L9.52497678,0.563051212 C9.15785587,0.460589674 8.81970698,0.351724289 8.47417307,0.273625209 L8.47417307,0.273625209 C8.09569059,0.18800857 7.71046217,0.130791597 7.32814515,0.0612541806 L7.32814515,0.0612541806 L5.87357946,0.0612541806 Z" id="path-4"></path>
        <linearGradient x1="-84.8223283%" y1="51.1153734%" x2="145.197445%" y2="49.2041103%" id="linearGradient-6">
            <stop stop-color="#262860" offset="0%"></stop>
            <stop stop-color="#3D439A" offset="100%"></stop>
        </linearGradient>
        <path d="M11.3768096,0.243874748 C10.3470354,2.79170202 9.31165645,5.33736308 8.27663674,7.88330364 L8.27663674,7.88330364 C8.25694808,7.9317292 8.22676839,7.97610183 8.18358269,8.05506414 L8.18358269,8.05506414 C8.15591797,7.92236553 8.13507961,7.82858905 8.11675623,7.7343933 L8.11675623,7.7343933 C7.69891121,5.57956075 7.28487458,3.42409929 6.86178405,1.27024504 L6.86178405,1.27024504 C6.71239457,0.509411723 6.14178283,0.0628903362 5.35136233,0.0626807018 L5.35136233,0.0626807018 C3.6848685,0.0621216765 2.01837467,0.0625409455 0.35195269,0.0625409455 L0.35195269,0.0625409455 C0.00467066657,0.0625409455 0.00467066657,0.0625409455 0,0.417521954 L0,0.417521954 C0.0387306044,0.426955505 0.0798324702,0.437437227 0.121149905,0.446940656 L0.121149905,0.446940656 C1.05427723,0.662444875 1.96900931,0.927492703 2.85025631,1.30483472 L2.85025631,1.30483472 C3.4000297,1.54032409 3.69313199,1.92395514 3.83957535,2.48556584 L3.83957535,2.48556584 C4.63768448,5.54713729 5.45842838,8.60318836 6.26566328,11.6623839 L6.26566328,11.6623839 C6.31215438,11.8385468 6.37797485,11.9073767 6.57989136,11.9046515 L6.57989136,11.9046515 C7.53191692,11.8917939 8.48437362,11.8948686 9.43654289,11.902625 L9.43654289,11.902625 C9.61057911,11.9039527 9.69817207,11.860209 9.76974106,11.69334 L9.76974106,11.69334 C11.2723304,8.19069763 12.7829677,4.69147932 14.2916649,1.19149236 L14.2916649,1.19149236 C14.4496771,0.824911577 14.6055337,0.457492257 14.7703004,0.0721841303 L14.7703004,0.0721841303 C14.6818452,0.0681311976 14.6193301,0.0628204581 14.5568869,0.0628204581 L14.5568869,0.0628204581 C14.2834014,0.0627505799 14.0099159,0.0628903362 13.7364304,0.0630999707 L13.7364304,0.0630999707 C13.0431598,0.0635891177 12.3498891,0.0640782648 11.6566904,0.0587675253 L11.6566904,0.0587675253 C11.6546784,0.0587675253 11.6527383,0.0586976471 11.6507981,0.0586976471 L11.6507981,0.0586976471 C11.5004745,0.0586976471 11.4322828,0.106494303 11.3768096,0.243874748" id="path-7"></path>
        <linearGradient x1="14.7491674%" y1="50.0982813%" x2="262.250493%" y2="48.8283131%" id="linearGradient-9">
            <stop stop-color="#262860" offset="0%"></stop>
            <stop stop-color="#3D439A" offset="100%"></stop>
        </linearGradient>
        <path d="M2.68580889,0.00527168995 C1.81492113,3.96684125 0.94627179,7.91878119 0.0714126517,11.8986259 L0.0714126517,11.8986259 L0.332007454,11.8986259 C1.20195652,11.8986259 2.0719778,11.8887855 2.94156583,11.9050223 L2.94156583,11.9050223 C3.1841089,11.9096613 3.26685804,11.8373338 3.31624758,11.6098779 L3.31624758,11.6098779 C4.02719699,8.33608817 4.74876082,5.06433681 5.46758079,1.79216371 L5.46758079,1.79216371 C5.59755326,1.20046923 5.72673145,0.608634177 5.85879792,0.00527168995 L5.85879792,0.00527168995 L2.68580889,0.00527168995 Z" id="path-10"></path>
        <linearGradient x1="-8.35298589%" y1="50.7610462%" x2="141.778503%" y2="48.7840746%" id="linearGradient-12">
            <stop stop-color="#262860" offset="0%"></stop>
            <stop stop-color="#3D439A" offset="100%"></stop>
        </linearGradient>
    </defs>
    <g id="Page-1" stroke="none" stroke-width="1" fill="none" fill-rule="evenodd">
        <g id="Artboard" transform="translate(-516.000000, -386.000000)">
            <g id="Group-5" transform="translate(28.000000, 38.000000)">
                <g id="Group">
                    <g id="Group-24" transform="translate(131.000000, 107.000000)">
                        <g id="Group-46" transform="translate(0.000000, 6.000000)">
                            <g id="Group-17" transform="translate(313.000000, 235.000000)">
                                <g id="Visa" transform="translate(44.000000, 0.000000)">
                                    <rect id="Rectangle" fill="#FFFFFF" x="0" y="0" width="40" height="31"></rect>
                                    <g id="Group-3" transform="translate(27.631184, 7.274693)">
                                        <mask id="mask-2" fill="white">
                                            <use xlink:href="#path-1"></use>
                                        </mask>
                                        <g id="Clip-2"></g>
                                        <path d="M6.18057702,0.0625409455 C5.42230765,0.0625409455 4.98160775,0.35001966 4.68759367,1.0365725 L4.68759367,1.0365725 C3.32994674,4.20631532 1.97215705,7.37605814 0.615081157,10.5460106 L0.615081157,10.5460106 C0.425281831,10.989108 0.238409083,11.4333234 0.0410434798,11.898642 L0.0410434798,11.898642 C1.12409169,11.898642 2.17673203,11.900948 3.22930099,11.8919337 L3.22930099,11.8919337 C3.28469184,11.8915144 3.3657081,11.8049354 3.39012005,11.7419053 L3.39012005,11.7419053 C3.57014032,11.2772855 3.74609194,10.8107789 3.906911,10.3395207 L3.906911,10.3395207 C3.96073149,10.1818756 4.03096938,10.1247152 4.20770617,10.1261128 L4.20770617,10.1261128 C5.3754824,10.1351969 6.54354414,10.1388306 7.71117761,10.1240863 L7.71117761,10.1240863 C7.94516113,10.1211514 8.01218692,10.2006728 8.0496614,10.4059748 L8.0496614,10.4059748 C8.13988568,10.9005025 8.254165,11.3909073 8.36066391,11.8921433 L8.36066391,11.8921433 L11.2727523,11.8921433 L11.2727523,11.8079401 C11.1786735,11.4084467 11.0775281,11.010281 10.9917294,10.6090407 L10.9917294,10.6090407 C10.3222567,7.47682244 9.65606751,4.3439054 8.98816518,1.21133775 L8.98816518,1.21133775 C8.9068634,0.829733169 8.8217071,0.448897244 8.7372646,0.0625409455 L8.7372646,0.0625409455 C8.15951517,0.0625409455 7.59133065,0.0624710673 7.0264296,0.0624710673 L7.0264296,0.0624710673 C6.74397908,0.0624710673 6.46224236,0.0625409455 6.18057702,0.0625409455 M6.50121582,3.35044772 C6.51370732,3.35282358 6.52627019,3.35519944 6.53876168,3.35757529 L6.53876168,3.35757529 C6.84491035,4.79468935 7.1511304,6.23173354 7.46149049,7.6883436 L7.46149049,7.6883436 L4.89480971,7.6883436 C5.43422811,6.23173354 5.96772196,4.79105569 6.50121582,3.35044772" id="Fill-1" fill="url(#linearGradient-3)" mask="url(#mask-2)"></path>
                                    </g>
                                    <g id="Group-6" transform="translate(18.749732, 7.000000)">
                                        <mask id="mask-5" fill="white">
                                            <use xlink:href="#path-4"></use>
                                        </mask>
                                        <g id="Clip-5"></g>
                                        <path d="M5.87357946,0.0612541806 C5.81371816,0.0754540134 5.75463796,0.0958488712 5.69385354,0.103018395 L5.69385354,0.103018395 C4.60015988,0.2329051 3.57349952,0.542099498 2.70888363,1.23872659 L2.70888363,1.23872659 C1.71502981,2.03941618 1.2346482,3.06987855 1.37389851,4.3389538 L1.37389851,4.3389538 C1.46692141,5.18655853 1.95738642,5.82422847 2.63460733,6.30249833 L2.63460733,6.30249833 C3.16299159,6.67559197 3.75606583,6.95972784 4.31434525,7.29314548 L4.31434525,7.29314548 C4.67187982,7.50656062 5.04894211,7.70299164 5.36266361,7.96889047 L5.36266361,7.96889047 C5.8399918,8.3735161 5.78971683,9.02086141 5.26552214,9.36534657 L5.26552214,9.36534657 C5.02387563,9.52412019 4.73330334,9.64746384 4.44826982,9.69973871 L4.44826982,9.69973871 C3.35280091,9.90090301 2.29589036,9.71602676 1.27235443,9.31181877 L1.27235443,9.31181877 C1.05818873,9.22717663 0.848496656,9.13132776 0.625241699,9.03575732 L0.625241699,9.03575732 C0.434722281,9.91036957 0.249386581,10.7611762 0.0642639111,11.6106603 L0.0642639111,11.6106603 C0.103461346,11.6346051 0.125758438,11.652703 0.151250973,11.6629352 L0.151250973,11.6629352 C0.236817838,11.6973211 0.322384703,11.7325422 0.410223884,11.7608723 L0.410223884,11.7608723 C1.42183016,12.0866332 2.45353222,12.2506273 3.50241866,12.2508361 L3.50241866,12.2508361 L3.5084545,12.2508361 C3.81592713,12.2506969 4.12489098,12.2365667 4.43520401,12.2082366 L4.43520401,12.2082366 C5.41719917,12.1186524 6.35949984,11.876768 7.1921613,11.3352253 L7.1921613,11.3352253 C8.51649494,10.4740472 9.09955679,9.25682922 8.90300153,7.7114837 L8.90300153,7.7114837 C8.79194213,6.83777634 8.26284776,6.19147513 7.53734016,5.7214885 L7.53734016,5.7214885 C6.92132974,5.32236183 6.25582546,4.99743625 5.62192056,4.62378574 L5.62192056,4.62378574 C5.3431359,4.45937395 5.06413822,4.28104076 4.82874058,4.06372763 L4.82874058,4.06372763 C4.48732523,3.74854703 4.49208289,3.31642663 4.84961747,3.01621154 L4.84961747,3.01621154 C5.05788935,2.84114987 5.3258095,2.70235347 5.59053421,2.63003177 L5.59053421,2.63003177 C6.24162349,2.45211622 6.90861898,2.50585284 7.55942422,2.64673746 L7.55942422,2.64673746 C8.03533222,2.74961664 8.49824541,2.90999122 8.98260357,3.04913566 L8.98260357,3.04913566 C9.15934708,2.23918834 9.33992512,1.41135201 9.52497678,0.563051212 L9.52497678,0.563051212 C9.15785587,0.460589674 8.81970698,0.351724289 8.47417307,0.273625209 L8.47417307,0.273625209 C8.09569059,0.18800857 7.71046217,0.130791597 7.32814515,0.0612541806 L7.32814515,0.0612541806 L5.87357946,0.0612541806 Z" id="Fill-4" fill="url(#linearGradient-6)" mask="url(#mask-5)"></path>
                                    </g>
                                    <g id="Group-9" transform="translate(0.000000, 7.274693)">
                                        <mask id="mask-8" fill="white">
                                            <use xlink:href="#path-7"></use>
                                        </mask>
                                        <g id="Clip-8"></g>
                                        <path d="M11.3768096,0.243874748 C10.3470354,2.79170202 9.31165645,5.33736308 8.27663674,7.88330364 L8.27663674,7.88330364 C8.25694808,7.9317292 8.22676839,7.97610183 8.18358269,8.05506414 L8.18358269,8.05506414 C8.15591797,7.92236553 8.13507961,7.82858905 8.11675623,7.7343933 L8.11675623,7.7343933 C7.69891121,5.57956075 7.28487458,3.42409929 6.86178405,1.27024504 L6.86178405,1.27024504 C6.71239457,0.509411723 6.14178283,0.0628903362 5.35136233,0.0626807018 L5.35136233,0.0626807018 C3.6848685,0.0621216765 2.01837467,0.0625409455 0.35195269,0.0625409455 L0.35195269,0.0625409455 C0.00467066657,0.0625409455 0.00467066657,0.0625409455 0,0.417521954 L0,0.417521954 C0.0387306044,0.426955505 0.0798324702,0.437437227 0.121149905,0.446940656 L0.121149905,0.446940656 C1.05427723,0.662444875 1.96900931,0.927492703 2.85025631,1.30483472 L2.85025631,1.30483472 C3.4000297,1.54032409 3.69313199,1.92395514 3.83957535,2.48556584 L3.83957535,2.48556584 C4.63768448,5.54713729 5.45842838,8.60318836 6.26566328,11.6623839 L6.26566328,11.6623839 C6.31215438,11.8385468 6.37797485,11.9073767 6.57989136,11.9046515 L6.57989136,11.9046515 C7.53191692,11.8917939 8.48437362,11.8948686 9.43654289,11.902625 L9.43654289,11.902625 C9.61057911,11.9039527 9.69817207,11.860209 9.76974106,11.69334 L9.76974106,11.69334 C11.2723304,8.19069763 12.7829677,4.69147932 14.2916649,1.19149236 L14.2916649,1.19149236 C14.4496771,0.824911577 14.6055337,0.457492257 14.7703004,0.0721841303 L14.7703004,0.0721841303 C14.6818452,0.0681311976 14.6193301,0.0628204581 14.5568869,0.0628204581 L14.5568869,0.0628204581 C14.2834014,0.0627505799 14.0099159,0.0628903362 13.7364304,0.0630999707 L13.7364304,0.0630999707 C13.0431598,0.0635891177 12.3498891,0.0640782648 11.6566904,0.0587675253 L11.6566904,0.0587675253 C11.6546784,0.0587675253 11.6527383,0.0586976471 11.6507981,0.0586976471 L11.6507981,0.0586976471 C11.5004745,0.0586976471 11.4322828,0.106494303 11.3768096,0.243874748" id="Fill-7" fill="url(#linearGradient-9)" mask="url(#mask-8)"></path>
                                    </g>
                                    <g id="Group-12" transform="translate(13.392666, 7.274693)">
                                        <mask id="mask-11" fill="white">
                                            <use xlink:href="#path-10"></use>
                                        </mask>
                                        <g id="Clip-11"></g>
                                        <path d="M2.68580889,0.00527168995 C1.81492113,3.96684125 0.94627179,7.91878119 0.0714126517,11.8986259 L0.0714126517,11.8986259 L0.332007454,11.8986259 C1.20195652,11.8986259 2.0719778,11.8887855 2.94156583,11.9050223 L2.94156583,11.9050223 C3.1841089,11.9096613 3.26685804,11.8373338 3.31624758,11.6098779 L3.31624758,11.6098779 C4.02719699,8.33608817 4.74876082,5.06433681 5.46758079,1.79216371 L5.46758079,1.79216371 C5.59755326,1.20046923 5.72673145,0.608634177 5.85879792,0.00527168995 L5.85879792,0.00527168995 L2.68580889,0.00527168995 Z" id="Fill-10" fill="url(#linearGradient-12)" mask="url(#mask-11)"></path>
                                    </g>
                                </g>
                            </g>
                        </g>
                    </g>
                </g>
            </g>
        </g>
    </g>
</svg>