<?xml version="1.0" encoding="UTF-8"?>
<svg width="120px" height="29px" viewBox="0 0 120 29" version="1.1" xmlns="http://www.w3.org/2000/svg" xmlns:xlink="http://www.w3.org/1999/xlink">
    <!-- Generator: Sketch 49.3 (51167) - http://www.bohemiancoding.com/sketch -->
    <title>Group 6</title>
    <desc>Created with Sketch.</desc>
    <defs></defs>
    <g id="CheckOut-Terminal-+-SIM" stroke="none" stroke-width="1" fill="none" fill-rule="evenodd">
        <g id="D---2.3-Elige-tu-plan" transform="translate(-276.000000, -1040.000000)" fill="#5BC500">
            <g id="Group-15" transform="translate(258.000000, 595.000000)">
                <g id="Group-6" transform="translate(18.000000, 445.000000)">
                    <path d="M11.6241407,21.6635833 C11.6170576,21.6718333 11.6191409,21.6860417 11.6124745,21.6942917 C11.6016416,21.707125 11.607058,21.7268333 11.5958085,21.73875 C11.5841423,21.751125 11.5666431,21.7460833 11.5549769,21.7570833 C11.4174826,21.8950417 11.2391567,21.9802917 11.0412483,21.9912917 C11.030832,21.9922083 11.0233324,21.9977083 11.0129161,21.9977083 C11.008333,21.9977083 11.0049998,22 11,22 C10.9958335,22 10.9925003,21.9977083 10.9883338,21.9977083 C10.9733344,21.9977083 10.9625016,21.9867083 10.9475022,21.98625 C10.7804258,21.9734167 10.6383484,21.8973333 10.5150202,21.7891667 C10.4812716,21.762125 10.4350235,21.7722083 10.4046081,21.73875 C10.3841923,21.7158333 10.3921087,21.6814583 10.3741927,21.657625 C10.367943,21.6502917 10.3591934,21.646625 10.3537769,21.638375 L6.23811508,17.1114167 C5.92062831,16.7617083 5.92062831,16.19475 6.23811508,15.846875 C6.5560185,15.4953333 7.07099704,15.4953333 7.38890046,15.846875 L10.1667014,18.9012083 L10.1667014,0.917125 C10.1667014,0.411125 10.5396025,0 11,0 C11.4599808,0 11.8332986,0.411125 11.8332986,0.917125 L11.8332986,18.9012083 L14.6110995,15.846875 C14.9294196,15.4953333 15.4439815,15.4953333 15.7618849,15.846875 C16.0793717,16.19475 16.0793717,16.7617083 15.7618849,17.1114167 L11.6241407,21.6635833 Z M21.2307692,29 L1.76923077,29 C0.792173077,29 0,28.1791421 0,27.1667049 L0,8.83375346 C0,7.8208579 0.792173077,7 1.76923077,7 L4.42307692,7 L4.42307692,8.83375346 L2.65384615,8.83375346 C2.16509615,8.83375346 1.76923077,9.2448699 1.76923077,9.74948439 L1.76923077,26.249599 C1.76923077,26.7565051 2.16509615,27.1667049 2.65384615,27.1667049 L20.3461538,27.1667049 C20.8344615,27.1667049 21.2307692,26.7565051 21.2307692,26.249599 L21.2307692,9.74948439 C21.2307692,9.2448699 20.8344615,8.83375346 20.3461538,8.83375346 L18.5769231,8.83375346 L18.5769231,7 L21.2307692,7 C22.2082692,7 23,7.8208579 23,8.83375346 L23,27.1667049 C23,28.1791421 22.2082692,29 21.2307692,29 Z" id="Fill-1-Copy"></path>
                    <text id="Recarga-SOS" font-family="Telefonica-Bold, Telefonica" font-size="16" font-weight="bold">
                        <tspan x="29" y="23">Recarga SOS</tspan>
                    </text>
                </g>
            </g>
        </g>
    </g>
</svg>