<?xml version="1.0" encoding="UTF-8"?>
<svg width="40px" height="31px" viewBox="0 0 40 31" version="1.1" xmlns="http://www.w3.org/2000/svg" xmlns:xlink="http://www.w3.org/1999/xlink">
    <!-- Generator: Sketch 54.1 (76490) - https://sketchapp.com -->
    <title>American express</title>
    <desc>Created with Sketch.</desc>
    <defs>
        <polygon id="path-1" points="0.140654131 0.02553 21.7883322 0.02553 21.7883322 4.26438 0.140654131 4.26438"></polygon>
        <polygon id="path-3" points="0 27 26.8623274 27 26.8623274 0 0 0"></polygon>
    </defs>
    <g id="Page-1" stroke="none" stroke-width="1" fill="none" fill-rule="evenodd">
        <g id="Artboard" transform="translate(-560.000000, -386.000000)">
            <g id="Group-5" transform="translate(28.000000, 38.000000)">
                <g id="Group">
                    <g id="Group-24" transform="translate(131.000000, 107.000000)">
                        <g id="Group-46" transform="translate(0.000000, 6.000000)">
                            <g id="Group-17" transform="translate(313.000000, 235.000000)">
                                <g id="American-express" transform="translate(88.000000, 0.000000)">
                                    <rect id="Rectangle" fill="#FFFFFF" x="0" y="0" width="40" height="31"></rect>
                                    <polygon id="Fill-1" fill="#016FD0" points="7 2 7 13.3805 7 15.25985 7 29 33.8623274 29 33.8623274 2"></polygon>
                                    <g id="Group-27" transform="translate(6.000000, 2.000000)">
                                        <g id="Group-4" transform="translate(5.073995, 14.550000)">
                                            <mask id="mask-2" fill="white">
                                                <use xlink:href="#path-1"></use>
                                            </mask>
                                            <g id="Clip-3"></g>
                                            <path d="M0.140654131,4.26438 L0.140654131,0.02553 L4.60591912,0.02553 L5.0851132,0.65313 L5.57997696,0.02553 L21.7884069,0.02553 L21.7884069,3.97203 C21.7884069,3.97203 21.3644298,4.26018 20.8741923,4.26438 L11.8993395,4.26438 L11.3591082,3.59613 L11.3591082,4.26438 L9.58917933,4.26438 L9.58917933,3.12378 C9.58917933,3.12378 9.34726915,3.28293 8.82464764,3.28293 L8.22218533,3.28293 L8.22218533,4.26438 L5.54222047,4.26438 L5.06377257,3.62328 L4.57801215,4.26438 L0.140654131,4.26438 Z" id="Fill-2" fill="#FFFFFF" mask="url(#mask-2)"></path>
                                        </g>
                                        <path d="M1.49235152e-05,11.380515 L1.00705373,9.020865 L2.74847872,9.020865 L3.31990012,10.342665 L3.31990012,9.020865 L5.48455601,9.020865 L5.82481215,9.976215 L6.15462184,9.020865 L15.872218,9.020865 L15.872218,9.501165 C15.872218,9.501165 16.3830499,9.020865 17.2226469,9.020865 L20.3756872,9.031965 L20.9372591,10.336365 L20.9372591,9.020865 L22.7488246,9.020865 L23.2474192,9.770265 L23.2474192,9.020865 L25.0756991,9.020865 L25.0756991,13.259865 L23.2474192,13.259865 L22.7695683,12.508215 L22.7695683,13.259865 L20.1079593,13.259865 L19.8402315,12.591615 L19.1247982,12.591615 L18.8615474,13.259865 L17.056399,13.259865 C16.3341008,13.259865 15.872218,12.789315 15.872218,12.789315 L15.872218,13.259865 L13.1507658,13.259865 L12.6105345,12.591615 L12.6105345,13.259865 L2.49045115,13.259865 L2.22302175,12.591615 L1.50967772,12.591615 L1.24418839,13.259865 L1.49235152e-05,13.259865 L1.49235152e-05,11.380515 Z" id="Fill-5" fill="#FFFFFF"></path>
                                        <path d="M1.86590203,10.282185 L2.31002585,11.392785 L1.42058434,11.392785 L1.86590203,10.282185 Z M1.36342728,9.543435 L0.00523815385,12.717435 L0.889456431,12.717435 L1.14002225,12.081885 L2.59685581,12.081885 L2.84622775,12.717435 L3.74999583,12.717435 L2.39314983,9.543435 L1.36342728,9.543435 Z" id="Fill-7" fill="#016FD0"></path>
                                        <polygon id="Fill-9" fill="#016FD0" points="3.84340211 12.716895 3.84340211 9.542895 5.0999621 9.547695 5.83076664 11.593995 6.5442599 9.542895 7.79067189 9.542895 7.79067189 12.716895 7.00136717 12.716895 7.00136717 10.378245 6.16445644 12.716895 5.47215456 12.716895 4.63285607 10.378245 4.63285607 12.716895"></polygon>
                                        <polygon id="Fill-11" fill="#016FD0" points="8.33094791 12.716895 8.33094791 9.542895 10.9070451 9.542895 10.9070451 10.252845 9.1286098 10.252845 9.1286098 10.795845 10.8654085 10.795845 10.8654085 11.463945 9.1286098 11.463945 9.1286098 12.027795 10.9070451 12.027795 10.9070451 12.716895"></polygon>
                                        <path d="M12.1535019,10.253475 L13.0559268,10.253475 C13.272467,10.253475 13.4299101,10.423725 13.4299101,10.587675 C13.4299101,10.798425 13.2259057,10.921725 13.0675672,10.921725 L12.1535019,10.921725 L12.1535019,10.253475 Z M11.3640479,9.543525 L11.3640479,12.717525 L12.1535019,12.717525 L12.1535019,11.589825 L12.4859978,11.589825 L13.4324471,12.717525 L14.3972524,12.717525 L13.3584265,11.548125 C13.7847913,11.511975 14.2245873,11.144175 14.2245873,10.573125 C14.2245873,9.905325 13.7030105,9.543525 13.1208441,9.543525 L11.3640479,9.543525 Z" id="Fill-13" fill="#016FD0"></path>
                                        <mask id="mask-4" fill="white">
                                            <use xlink:href="#path-3"></use>
                                        </mask>
                                        <g id="Clip-16"></g>
                                        <polygon id="Fill-15" fill="#016FD0" mask="url(#mask-4)" points="14.5468457 12.71685 15.3528648 12.71685 15.3528648 9.54285 14.5468457 9.54285"></polygon>
                                        <path d="M17.2642238,12.716895 L17.0902156,12.716895 C16.2483801,12.716895 15.7372497,12.050295 15.7372497,11.142945 C15.7372497,10.213245 16.2427092,9.542895 17.3057112,9.542895 L18.1782891,9.542895 L18.1782891,10.294695 L17.2737749,10.294695 C16.842336,10.294695 16.5370009,10.633095 16.5370009,11.150895 C16.5370009,11.765445 16.8860619,12.023595 17.3888352,12.023595 L17.5967197,12.023595 L17.2642238,12.716895 Z" id="Fill-17" fill="#016FD0" mask="url(#mask-4)"></path>
                                        <path d="M19.4845295,10.282185 L19.9286533,11.392785 L19.0392118,11.392785 L19.4845295,10.282185 Z M18.9820547,9.543435 L17.6238656,12.717435 L18.5080839,12.717435 L18.758799,12.081885 L20.2154833,12.081885 L20.4648552,12.717435 L21.3686233,12.717435 L20.0117773,9.543435 L18.9820547,9.543435 Z" id="Fill-18" fill="#016FD0" mask="url(#mask-4)"></path>
                                        <polygon id="Fill-19" fill="#016FD0" mask="url(#mask-4)" points="21.4608058 12.716895 21.4608058 9.542895 22.4645615 9.542895 23.7460437 11.537145 23.7460437 9.542895 24.5356469 9.542895 24.5356469 12.716895 23.5642753 12.716895 22.2502598 10.670595 22.2502598 12.716895"></polygon>
                                        <polygon id="Fill-20" fill="#016FD0" mask="url(#mask-4)" points="5.75474625 18.271515 5.75474625 15.097365 8.33099268 15.097365 8.33099268 15.807465 6.55255737 15.807465 6.55255737 16.350315 8.28935608 16.350315 8.28935608 17.018565 6.55255737 17.018565 6.55255737 17.582415 8.33099268 17.582415 8.33099268 18.271515"></polygon>
                                        <polygon id="Fill-21" fill="#016FD0" mask="url(#mask-4)" points="18.377727 18.271515 18.377727 15.097365 20.9538242 15.097365 20.9538242 15.807465 19.1755381 15.807465 19.1755381 16.350315 20.9039796 16.350315 20.9039796 17.018565 19.1755381 17.018565 19.1755381 17.582415 20.9538242 17.582415 20.9538242 18.271515"></polygon>
                                        <polygon id="Fill-22" fill="#016FD0" mask="url(#mask-4)" points="8.43086085 18.271515 9.6851823 16.704015 8.40101382 15.097515 9.39551687 15.097515 10.160347 16.090665 10.9277142 15.097515 11.8834161 15.097515 10.6162604 16.684515 11.8726712 18.271515 10.8783173 18.271515 10.1357232 17.293965 9.41118656 18.271515"></polygon>
                                        <path d="M12.7767526,15.815775 L13.6518676,15.815775 C13.8790035,15.815775 14.0415206,15.955725 14.0415206,16.181325 C14.0415206,16.393125 13.8798989,16.546725 13.6493306,16.546725 L12.7767526,16.546725 L12.7767526,15.815775 Z M11.966555,15.098025 L11.966555,18.272025 L12.7767526,18.272025 L12.7767526,17.269725 L13.607694,17.269725 C14.31089,17.269725 14.843958,16.894725 14.843958,16.165575 C14.843958,15.561525 14.4258011,15.098025 13.7103678,15.098025 L11.966555,15.098025 Z" id="Fill-23" fill="#016FD0" mask="url(#mask-4)"></path>
                                        <path d="M15.9761155,15.80742 L16.8785405,15.80742 C17.0950807,15.80742 17.2525238,15.97767 17.2525238,16.14162 C17.2525238,16.35237 17.0485193,16.47567 16.8901808,16.47567 L15.9761155,16.47567 L15.9761155,15.80742 Z M15.1866616,15.09747 L15.1866616,18.27147 L15.9761155,18.27147 L15.9761155,17.14392 L16.3086115,17.14392 L17.2550608,18.27147 L18.219866,18.27147 L17.1810402,17.10207 C17.607405,17.06592 18.0470517,16.69812 18.0470517,16.12722 C18.0470517,15.45927 17.5256241,15.09747 16.9434578,15.09747 L15.1866616,15.09747 Z" id="Fill-24" fill="#016FD0" mask="url(#mask-4)"></path>
                                        <path d="M21.31951,18.271515 L21.31951,17.582415 L22.8994626,17.582415 C23.133314,17.582415 23.2344955,17.455365 23.2344955,17.316165 C23.2344955,17.182665 23.1336125,17.047815 22.8994626,17.047815 L22.1855216,17.047815 C21.5650018,17.047815 21.2193732,16.667715 21.2193732,16.097115 C21.2193732,15.588315 21.5357517,15.097515 22.458025,15.097515 L23.9954455,15.097515 L23.6629496,15.811665 L22.3334136,15.811665 C22.0792662,15.811665 22.0009177,15.945765 22.0009177,16.073715 C22.0009177,16.205265 22.0976221,16.350315 22.291777,16.350315 L23.0397436,16.350315 C23.7315978,16.350315 24.0317097,16.744815 24.0317097,17.261415 C24.0317097,17.816715 23.6972737,18.271515 23.0019871,18.271515 L21.31951,18.271515 Z" id="Fill-25" fill="#016FD0" mask="url(#mask-4)"></path>
                                        <path d="M24.2169851,18.271515 L24.2169851,17.582415 L25.7300803,17.582415 C25.9639318,17.582415 26.0651132,17.455365 26.0651132,17.316165 C26.0651132,17.182665 25.9642303,17.047815 25.7300803,17.047815 L25.0829967,17.047815 C24.4624769,17.047815 24.1168483,16.667715 24.1168483,16.097115 C24.1168483,15.588315 24.4332268,15.097515 25.3555001,15.097515 L26.8623274,15.097515 L26.5299807,15.811665 L25.2308887,15.811665 C24.976592,15.811665 24.8983928,15.945765 24.8983928,16.073715 C24.8983928,16.205265 24.9950972,16.350315 25.1892521,16.350315 L25.8703614,16.350315 C26.5620663,16.350315 26.8623274,16.744815 26.8623274,17.261415 C26.8623274,17.816715 26.5277422,18.271515 25.8327541,18.271515 L24.2169851,18.271515 Z" id="Fill-26" fill="#016FD0" mask="url(#mask-4)"></path>
                                    </g>
                                </g>
                            </g>
                        </g>
                    </g>
                </g>
            </g>
        </g>
    </g>
</svg>